<svg id="m" data-name="" xmlns="" viewBox="0 0 1200 628">
	<mask id="mask1">
	    <!-- Tous les pixels blancs sont visibles -->
		<rect width="1200" height="628" fill="black"/>

	    <!-- Tous les pixels noirs sont invisibles -->
		<path d="M505.5,127.5v70l-6,28,15-31,33-45s12-58,12-63,9-36,9-36l51-50h-147l27,78Z" fill="white"/>
	</mask>
	<mask id="mask2">
	    <!-- Tous les pixels blancs sont visibles -->
		<rect width="1200" height="628" fill="black"/>

	    <!-- Tous les pixels noirs sont invisibles -->
		<path d="M265.5,314.5h134l100-38,45-19,56-9,76-90,44-38,51-34,64-21,36-38,47-27h-299l-51,50s-9,31-9,36-12,63-12,63l-33,45-15,31,6-28v-70l-6-49-27-78H51.5l69,30h104l62,20,8,49,30,39,52,65,72,51-75-20-70-31s-50-24-54-27-171-30-171-30l-26-33-42-29-10-34v322l75-22Z" fill="white"/>
	</mask>
	<mask id="mask3">
	    <!-- Tous les pixels blancs sont visibles -->
		<rect width="1200" height="628" fill="black"/>

	    <!-- Tous les pixels noirs sont invisibles -->
		<path d="M52.5,113.5l26,33s167,27,171,30,54,27,54,27l70,31,75,20-72-51-52-65-30-39-8-49-62-20h-104L51.5.5H.5v50l10,34Z" fill="white"/>
	</mask>
	<mask id="mask4">
	    <!-- Tous les pixels blancs sont visibles -->
		<rect width="1200" height="628" fill="black"/>

	    <!-- Tous les pixels noirs sont invisibles -->
		<polygon points="318.5 551.5 352.5 516.5 421.5 417.5 499.5 341.5 499.5 276.5 399.5 314.5 265.5 314.5 75.5 350.5 0.5 372.5 0.5 628.5 165.5 628.5 249.5 585.5 318.5 551.5" fill="white"/>
	</mask>
	<mask id="mask5">
	    <!-- Tous les pixels blancs sont visibles -->
		<rect width="1200" height="628" fill="black"/>

	    <!-- Tous les pixels noirs sont invisibles -->
		<path d="M505.5,127.5v70l-6,28,15-31,33-45s12-58,12-63,9-36,9-36l51-50h-147l27,78Z" fill="white"/>
	</mask>
	<mask id="mask6">
	    <!-- Tous les pixels blancs sont visibles -->
		<rect width="1200" height="628" fill="black"/>

	    <!-- Tous les pixels noirs sont invisibles -->
		<polygon points="979.5 516.5 918.5 452.5 831.5 404.5 754.5 377.5 670.5 374.5 600.5 332.5 556.5 300.5 499.5 276.5 523.5 386.5 523.5 435.5 571.5 461.5 600.5 525.5 628.5 575.5 672.5 566.5 835.5 628.5 1101.5 628.5 1008.5 563.5 979.5 516.5" fill="white"/>
	</mask>
	<mask id="mask7">
	    <!-- Tous les pixels blancs sont visibles -->
		<rect width="1200" height="628" fill="black"/>

	    <!-- Tous les pixels noirs sont invisibles -->
		<path d="M1126.5,138.5l-79,35-71,1-99,35h-24l-87,18-94,30-72,12-101,7,57,24,44,32,70,42,84,3,77,27,87,48,61,64,29,47,93,65h99v-154l-41-15-33-37-40-21-62-26-57-73s-61-14-66-14-70-25-70-25l141-12,120-30,49-18,59,36v-137l-11,2Z" fill="white"/>
	</mask>
	<mask id="mask8">
	    <!-- Tous les pixels blancs sont visibles -->
		<rect width="1200" height="628" fill="black"/>

	    <!-- Tous les pixels noirs sont invisibles -->
		<path d="M1092.5,221.5l-120,30-141,12s65,25,70,25,66,14,66,14l57,73,62,26,40,21,33,37,41,15v-235l-59-36Z" fill="black"/>
	</mask>
	<mask id="mask9">
	    <!-- Tous les pixels blancs sont visibles -->
		<rect width="1200" height="628" fill="black"/>

	    <!-- Tous les pixels noirs sont invisibles -->
		<polygon points="918.5 0.5 871.5 27.5 835.5 65.5 771.5 86.5 720.5 120.5 676.5 158.5 600.5 248.5 544.5 257.5 499.5 276.5 600.5 269.5 672.5 257.5 766.5 227.5 853.5 209.5 877.5 209.5 976.5 174.5 1047.5 173.5 1126.5 138.5 1189.5 104.5 1200.5 102.5 1200.5 0.5 918.5 0.5" fill="white"/>
	</mask>
</svg>

