<svg id="22f8a39e-4f99-4aed-9d8c-f8e86ab70cbc" data-name="Calque 1" xmlns="http://www.w3.org/2000/svg" xmlns:xlink="http://www.w3.org/1999/xlink" width="1830" height="1024" viewBox="0 0 1830 1024">
  <defs>
    <clipPath id="c4b16d70-6a53-465e-86b0-c13bb8d9ae65">
      <rect x="914" y="509" width="124" height="124.45" fill="none"/>
    </clipPath>
    <clipPath id="3746c86d-8efd-4afc-b3ae-94fdef63d8bb">
      <rect x="790" y="512" width="124" height="124.45" transform="translate(278 1426) rotate(-90)" fill="none" stroke="#1d1d1b" stroke-miterlimit="10"/>
    </clipPath>
    <clipPath id="f516ff15-8791-49ad-af3e-ca53f6c139e3">
      <rect x="790" y="388" width="124" height="124.45" transform="translate(1302 -402) rotate(90)" fill="none" stroke="#1d1d1b" stroke-miterlimit="10"/>
    </clipPath>
  </defs>
  <title>R-1.5</title>
  <g>
    <rect x="791" y="388" width="124" height="124.45" transform="translate(1303 -404) rotate(90)" fill="none" stroke="#1d1d1b" stroke-miterlimit="10" stroke-width="3"/>
    <rect x="916" y="388" width="124" height="124.45" fill="none" stroke="#1d1d1b" stroke-miterlimit="10" stroke-width="3"/>
    <rect x="791" y="512" width="124" height="124.45" transform="translate(279 1428) rotate(-90)" fill="none" stroke="#1d1d1b" stroke-miterlimit="10" stroke-width="3"/>
    <rect x="916" y="512" width="124" height="124.45" fill="none" stroke="#1d1d1b" stroke-miterlimit="10" stroke-width="3"/>
    <g clip-path="url(#c4b16d70-6a53-465e-86b0-c13bb8d9ae65)">
      <g>
        <polyline points="971 567 1015 525 1017 521 1024 514 1027 517" fill="none" stroke="#1d1d1b" stroke-linecap="round" stroke-linejoin="round" stroke-width="3.09"/>
        <polyline points="976 572 1019 529 1023 527 1030 520 1027 517" fill="none" stroke="#1d1d1b" stroke-linecap="round" stroke-linejoin="round" stroke-width="3.09"/>
        <path d="M0,0H0" fill="none" stroke="#1d1d1b" stroke-linecap="round" stroke-linejoin="round" stroke-width="3.09"/>
      </g>
    </g>
    <g>
      <ellipse cx="972" cy="410" rx="32" ry="11" transform="translate(-68 231) rotate(-13)" fill="none" stroke="#1d1d1b" stroke-linecap="round" stroke-miterlimit="10" stroke-width="2.77"/>
      <path d="M0,0H0" fill="none" stroke="#1d1d1b" stroke-linecap="round" stroke-miterlimit="10" stroke-width="2.77"/>
      <path d="M0,0H0" fill="none" stroke="#1d1d1b" stroke-linecap="round" stroke-miterlimit="10" stroke-width="2.77"/>
      <path d="M0,0H0" fill="none" stroke="#1d1d1b" stroke-linecap="round" stroke-miterlimit="10" stroke-width="2.77"/>
      <path d="M0,0H0" fill="none" stroke="#1d1d1b" stroke-linecap="round" stroke-miterlimit="10" stroke-width="2.77"/>
      <path d="M0,0H0" fill="none" stroke="#1d1d1b" stroke-linecap="round" stroke-miterlimit="10" stroke-width="2.77"/>
      <path d="M0,0H0" fill="none" stroke="#1d1d1b" stroke-linecap="round" stroke-miterlimit="10" stroke-width="2.77"/>
      <path d="M0,0H0" fill="none" stroke="#1d1d1b" stroke-linecap="round" stroke-miterlimit="10" stroke-width="2.77"/>
      <line x1="952" y1="430" x2="966" y2="487" fill="none" stroke="#1d1d1b" stroke-linecap="round" stroke-miterlimit="10" stroke-width="2.77"/>
      <path d="M0,0H0" fill="none" stroke="#1d1d1b" stroke-linecap="round" stroke-miterlimit="10" stroke-width="2.77"/>
      <ellipse cx="972" cy="410" rx="6" ry="2" transform="translate(-68 231) rotate(-13)" fill="none" stroke="#1d1d1b" stroke-linecap="round" stroke-miterlimit="10" stroke-width="2.77"/>
    </g>
    <g>
      <g clip-path="url(#3746c86d-8efd-4afc-b3ae-94fdef63d8bb)">
        <path d="M0,0H0" fill="none" stroke="#1d1d1b" stroke-linecap="round" stroke-miterlimit="10" stroke-width="4.86"/>
        <line x1="863" y1="586" x2="867" y2="574" fill="none" stroke="#1d1d1b" stroke-linecap="round" stroke-miterlimit="10" stroke-width="4.86"/>
        <polyline points="859 551 861 556 866 557 864 565" fill="none" stroke="#1d1d1b" stroke-linecap="round" stroke-linejoin="round" stroke-width="4.86"/>
        <polyline points="888 553 879 557 882 565 876 567" fill="none" stroke="#1d1d1b" stroke-linecap="round" stroke-linejoin="round" stroke-width="4.86"/>
      </g>
      <rect x="790" y="512" width="124" height="124.45" transform="translate(278 1426) rotate(-90)" fill="none" stroke="#1d1d1b" stroke-miterlimit="10"/>
    </g>
    <g>
      <g clip-path="url(#f516ff15-8791-49ad-af3e-ca53f6c139e3)">
        <g>
          <path d="M0,0Z" fill="none" stroke="#1d1d1b" stroke-linecap="round" stroke-miterlimit="10" stroke-width="4.86"/>
          <path d="M0,0H0" fill="none" stroke="#1d1d1b" stroke-linecap="round" stroke-miterlimit="10" stroke-width="4.86"/>
          <line x1="817" y1="533" x2="817" y2="560" fill="none" stroke="#1d1d1b" stroke-linecap="round" stroke-miterlimit="10" stroke-width="4.86"/>
          <polyline points="838 427 843 423 860 428 855 434" fill="none" stroke="#1d1d1b" stroke-linecap="round" stroke-linejoin="round" stroke-width="4.86"/>
          <polyline points="866 435 871 431 888 437 883 442" fill="none" stroke="#1d1d1b" stroke-linecap="round" stroke-linejoin="round" stroke-width="4.86"/>
          <polygon points="843 443 793 464 816 475 777 498 852 474 817 466 843 443" fill="none" stroke="#1d1d1b" stroke-linecap="round" stroke-linejoin="round" stroke-width="4.86"/>
        </g>
      </g>
      <rect x="790" y="388" width="124" height="124.45" transform="translate(1302 -402) rotate(90)" fill="none" stroke="#1d1d1b" stroke-miterlimit="10"/>
    </g>
  </g>
</svg>
