<?xml version="1.0" encoding="utf-8"?>
<!-- Generator: Adobe Illustrator 22.1.0, SVG Export Plug-In . SVG Version: 6.00 Build 0)  -->
<svg version="1.1" xmlns="http://www.w3.org/2000/svg" xmlns:xlink="http://www.w3.org/1999/xlink" x="0px" y="0px"
	 viewBox="0 0 841.9 595.3" enable-background="new 0 0 841.9 595.3" xml:space="preserve">
<g id="Origin">
</g>
<g id="Calque_1">
	<g>
		<g>
			<path fill="#151D1E" d="M44,92.6c-0.8,6.7-1.6,13.6-0.5,20.4c0.8,4.5,3.3,13.1,9,13.4c5.2,0.3,7.1-5.9,7.6-10
				c0.4-3.1,0.1-6.2,0.2-9.3c0.1-4.2,0.9-8.3,1-12.4c0.1-3.2-4.9-3.2-5,0c-0.1,4.6-1,9.1-1,13.6c0,2.1,1,14.5-4.2,11.2
				c-3-1.9-3.1-10.3-3.2-13.2c-0.1-4.5,0.5-9.1,1-13.6C49.3,89.4,44.3,89.5,44,92.6L44,92.6z"/>
		</g>
	</g>
	<g>
		<g>
			<path fill="#151D1E" d="M70.6,125.3c0-5.8,0.4-11.6,0.7-17.4c0.1-2.5,0.3-5,0.4-7.5c0-2.9-0.7-5.2-0.9-8
				c-1.6,0.2-3.3,0.4-4.9,0.7c2.3,6.4,5.4,12.4,8.2,18.7c2.6,5.9,4.1,12.2,7.8,17.5c1.4,2.1,4.5,1.3,4.7-1.3
				c0.5-6.4-1.8-12.3-2.3-18.7c-0.6-7.2-0.1-14.6-0.1-21.8c0-3.2-5-3.2-5,0c0,7.2-0.5,14.6,0.1,21.8c0.5,6.3,2.8,12.3,2.3,18.7
				c1.6-0.4,3.1-0.8,4.7-1.3c-3.4-4.8-4.8-10.5-7.1-15.8c-2.7-6.4-6-12.6-8.4-19.1c-0.9-2.5-5.2-2.3-4.9,0.7
				c0.2,2.4,0.9,4.7,0.9,7.2c0.1,2.8-0.2,5.6-0.4,8.3c-0.3,5.8-0.7,11.6-0.7,17.4C65.6,128.5,70.6,128.5,70.6,125.3L70.6,125.3z"/>
		</g>
	</g>
	<g>
		<g>
			<path fill="#151D1E" d="M104,92.1c-5.4-1.2-15.2-4.7-15,3.8c0.1,5.7,1.2,11.2,1.2,17c0,4.8-0.7,10,0.4,14.7
				c0.2,1,1.4,1.9,2.4,1.8c3.1-0.3,6.1-1.6,9.2-1.4c3.2,0.2,3.2-4.8,0-5c-3.3-0.2-5.9,1.1-9.2,1.4c0.8,0.6,1.6,1.2,2.4,1.8
				c-1.7-6.9,0.2-14.9-0.4-22c-0.1-1.7-0.4-3.3-0.7-4.9C94.1,98.1,94,97,94,95.9c-0.9-0.5-0.9-0.7-0.2-0.4c1.5-0.7,7.6,1.1,8.9,1.4
				C105.8,97.6,107.1,92.8,104,92.1L104,92.1z"/>
		</g>
	</g>
	<g>
		<g>
			<path fill="#151D1E" d="M93.6,108.5c2.2,0.1,4.3,1,6.5,1.2c3.2,0.2,3.2-4.8,0-5c-2.2-0.1-4.3-1.1-6.5-1.2
				C90.4,103.4,90.4,108.4,93.6,108.5L93.6,108.5z"/>
		</g>
	</g>
	<g>
		<g>
			<path fill="#151D1E" d="M134.2,123c-1.1-6.4,0-12.6,0.6-18.9c0.5-5.7,0.1-11.4,0-17.1c0-3.2-5-3.2-5,0c0.1,6.3,0.4,12.6-0.2,18.9
				c-0.6,6.2-1.3,12.2-0.2,18.4C129.9,127.5,134.8,126.1,134.2,123L134.2,123z"/>
		</g>
	</g>
	<g>
		<g>
			<path fill="#151D1E" d="M116.5,88.8c10.1,0,20.1-0.5,30.2-0.5c3.2,0,3.2-5,0-5c-10.1,0-20.1,0.5-30.2,0.5
				C113.3,83.8,113.2,88.8,116.5,88.8L116.5,88.8z"/>
		</g>
	</g>
	<g>
		<g>
			<path fill="#151D1E" d="M153.1,85.6c0,3.3,1.3,6.2,2.6,9.2c1.2,2.5,1.7,5.5,3.6,7.6c2.1,2.4,5.6-1.1,3.5-3.5
				c-1.2-1.4-1.6-4.1-2.4-5.8c-1.1-2.4-2.4-4.8-2.4-7.5C158.2,82.4,153.2,82.4,153.1,85.6L153.1,85.6z"/>
		</g>
	</g>
	<g>
		<g>
			<path fill="#151D1E" d="M157.6,130c0.2-8,4-14.9,6.1-22.5c2.1-7.5,4.9-14.9,6.5-22.5c0.7-3.1-4.2-4.5-4.8-1.3
				c-1.7,8.2-4.7,16.2-7,24.3c-2.1,7.5-5.5,14.1-5.8,22.1C152.5,133.2,157.5,133.2,157.6,130L157.6,130z"/>
		</g>
	</g>
	<g>
		<g>
			<path fill="#151D1E" d="M176.6,81.8c-0.8,2.9-0.4,5.8-0.3,8.8c0.1,4.4,0,8.7,0.1,13.1c0.1,8.5-0.5,16.9,0.1,25.4
				c0.2,3.2,5.2,3.2,5,0c-0.5-7.9-0.1-15.7-0.1-23.6c0-3.7-0.1-7.3-0.1-11c0-3.6-0.8-7.9,0.1-11.4C182.2,80,177.4,78.7,176.6,81.8
				L176.6,81.8z"/>
		</g>
	</g>
	<g>
		<g>
			<path fill="#151D1E" d="M181.3,105.7c4.5-0.9,8.5-0.2,11.7-4.2c2.7-3.3,3.3-8.1,3-12.2c-0.7-8.9-8.1-10.1-15.6-10
				c-3.2,0-3.2,5,0,5c5.1,0,10.5-0.3,10.7,6.2c0.1,2.5-0.1,5.7-1.7,7.7c-2.3,2.9-6.2,2.1-9.3,2.7
				C176.8,101.5,178.1,106.3,181.3,105.7L181.3,105.7z"/>
		</g>
	</g>
	<g>
		<g>
			<path fill="#151D1E" d="M199.3,88c0,7.4-0.7,14.4-1.9,21.7c-0.7,4.4-0.3,8.4,1.4,12.6c1.1,2.7,3.1,5.5,6.4,4.6
				c3.6-1,4.4-5.1,5.5-8.1c2-5.9,4-11.1,4.9-17.3c0.7-4.9,2.2-10.4-0.2-15.1c-4.1-8.3-14.5-8.3-15.6,1.7c-0.4,3.2,4.6,3.2,5,0
				c0.4-3.5,4.2-2.7,5.6-0.4c1.3,2.1,1.2,4,1.1,6.3c-0.2,3.1-0.8,6.3-1.3,9.4c-0.6,3.4-1.5,6.6-2.8,9.8c-0.8,2-1.4,5.2-2.6,7
				c-1,1.5-0.4,1.6-1.4,0.2c-0.4-0.5-0.7-1.9-0.9-2.5c-0.9-3.6-0.3-6.8,0.3-10.4c1.1-6.5,1.4-13,1.4-19.6
				C204.3,84.7,199.3,84.7,199.3,88L199.3,88z"/>
		</g>
	</g>
	<g>
		<g>
			<path fill="#151D1E" d="M239.8,81.4c-5.6-1.4-8.8,4-10.3,8.7c-1.2,3.9-1.5,8.1-1.7,12.1c-0.3,4.5-1,9.2-0.6,13.7
				c0.4,4.8,3.5,11.9,9.5,9.1c5.8-2.7,8.5-12.4,8.8-18.1c0.2-3.2-4.8-3.2-5,0c-0.1,2.8-0.9,5-2,7.5c-0.5,1.2-1.5,4.4-2.8,5.1
				c-4.8,2.6-3.4-8.1-3.3-10.2c0.2-2.7,0-24.7,6-23.2C241.6,87,242.9,82.2,239.8,81.4L239.8,81.4z"/>
		</g>
	</g>
	<g>
		<g>
			<path fill="#151D1E" d="M237.1,107.2c2.8,0.8,5.5,1.8,8.5,1.8c3.2-0.1,3.2-5.1,0-5c-2.5,0.1-4.8-0.9-7.2-1.6
				C235.4,101.5,234,106.4,237.1,107.2L237.1,107.2z"/>
		</g>
	</g>
	<g>
		<g>
			<path fill="#151D1E" d="M257,119.6c-1.2-4.5-0.3-9.5-0.1-14.1c0.2-5,0-10.1,0.1-15.1c0-1-0.4-5.3,0.2-6c0.8-0.9,4.3,1.7,5,2.8
				c3.6,5.2-2.7,6.5-6.5,6.9c-3.2,0.3-3.2,5.3,0,5c4.6-0.5,11.4-1.5,12.7-7c1.4-6.1-4.4-11.6-9.9-12.9c-7.7-1.9-6.5,8-6.6,12.9
				c0,5.1,0,10.1-0.2,15.1c-0.2,4.6-0.8,9.2,0.4,13.6C253,124.1,257.9,122.8,257,119.6L257,119.6z"/>
		</g>
	</g>
	<g>
		<g>
			<path fill="#151D1E" d="M252.7,97.5c1.2,4.3,4.3,8,6.5,11.9c2.4,4.3,4.9,8.8,7.7,12.9c1.8,2.6,6.1,0.1,4.3-2.5
				c-2.4-3.6-4.7-7.6-6.8-11.4c-2.2-3.9-5.7-8-6.9-12.2C256.7,93,251.8,94.4,252.7,97.5L252.7,97.5z"/>
		</g>
	</g>
	<path fill="none" stroke="#151D1E" stroke-miterlimit="10" d="M46.6,180.1c-0.8,9.4-0.4,18.9,1.1,28.2c0.3,1.9,0.9,4.1,2.7,4.7
		c1.4,0.5,3.1-0.3,4.1-1.5s1.4-2.8,1.7-4.3c1.9-8.3,3-16.9,3.2-25.5"/>
	<path fill="none" stroke="#151D1E" stroke-miterlimit="10" d="M68.4,214.3c0.8-11,1.6-22,2.4-33c4.3,10.7,8.7,21.5,13,32.2
		c-0.1-12.1-1.1-24.2-2.9-36.1"/>
	<path fill="none" stroke="#151D1E" stroke-miterlimit="10" d="M103.6,182c-4.2-0.4-8.3-0.8-12.5-1.3c0.5,11.1,0.7,22.1,1.1,33.1
		c3.5-1.1,7.3-1.1,10.9-0.6"/>
	<path fill="none" stroke="#151D1E" stroke-miterlimit="10" d="M92.4,194.3c2.9-0.1,5.8,0.2,8.7,0.9"/>
	<path fill="none" stroke="#151D1E" stroke-miterlimit="10" d="M115.7,173.6c9.8,1.4,19.8,1.5,29.7,0.4"/>
	<path fill="none" stroke="#151D1E" stroke-miterlimit="10" d="M131.4,174.3c2.6,12.1,2.5,24.7-0.2,36.8"/>
	<path fill="none" stroke="#151D1E" stroke-miterlimit="10" d="M154.6,172.6c2.2,5.4,5.4,10.4,9.6,14.6"/>
	<path fill="none" stroke="#151D1E" stroke-miterlimit="10" d="M167.8,172.9c-3.1,15.4-7,30.6-11.7,45.5"/>
	<path fill="none" stroke="#151D1E" stroke-miterlimit="10" d="M178.9,216.2c-0.3-16-0.3-32,0-48c2.5,0.2,5.4,0.6,7.8,1.4
		c2.4,0.8,4.7,2.3,5.9,4.5c1.1,2,1.3,4.4,1.2,6.7c-0.2,3.2-1.1,6.7-3.6,8.7c-2.8,2.3-6.8,2.3-10.5,2.2"/>
	<path fill="none" stroke="#151D1E" stroke-miterlimit="10" d="M202.1,174c-1.5,10.4-2.9,21-1.7,31.4c0.2,1.4,0.4,2.8,1.1,4
		c0.7,1.2,2,2.2,3.4,2.1c1.3-0.1,2.4-1,3-2.2c0.6-1.1,0.8-2.4,1-3.7c0.9-5.9,1.9-11.7,2.8-17.6c0.7-4.6,1.4-9.6-1.1-13.5
		c-1-1.6-2.5-2.9-4.3-3s-3.8,1.3-3.8,3.1"/>
	<path fill="none" stroke="#151D1E" stroke-miterlimit="10" d="M239.1,171.5c-2.8-1-5.9,0.9-7.4,3.4c-1.5,2.5-1.8,5.6-2,8.5
		c-0.4,4.2-0.7,8.4-1.1,12.6c-0.3,3.5-0.6,7.1-0.2,10.7c0.2,1.5,0.5,3,1.4,4.3c0.8,1.3,2.2,2.2,3.7,2.1c2.5-0.1,4-2.6,4.9-4.9
		c1.9-4.8,3-9.9,3.2-15.1"/>
	<path fill="none" stroke="#151D1E" stroke-miterlimit="10" d="M236.4,191.6c3.6,0.1,7.2,0.5,10.7,1.2"/>
	<path fill="none" stroke="#151D1E" stroke-width="5" stroke-miterlimit="10" d="M46.6,267.1c-0.8,9.4-0.4,18.9,1.1,28.2
		c0.3,1.9,0.9,4.1,2.7,4.7c1.4,0.5,3.1-0.3,4.1-1.5s1.4-2.8,1.7-4.3c1.9-8.3,3-16.9,3.2-25.5"/>
	<path fill="none" stroke="#151D1E" stroke-width="5" stroke-miterlimit="10" d="M68.4,301.3c0.8-11,1.6-22,2.4-33
		c4.3,10.7,8.7,21.5,13,32.2c-0.1-12.1-1.1-24.2-2.9-36.1"/>
	<path fill="none" stroke="#151D1E" stroke-width="5" stroke-miterlimit="10" d="M103.6,269c-4.2-0.4-8.3-0.8-12.5-1.3
		c0.5,11.1,0.7,22.1,1.1,33.1c3.5-1.1,7.3-1.1,10.9-0.6"/>
	<path fill="none" stroke="#151D1E" stroke-width="5" stroke-miterlimit="10" d="M92.4,281.3c2.9-0.1,5.8,0.2,8.7,0.9"/>
	<path fill="none" stroke="#151D1E" stroke-width="5" stroke-miterlimit="10" d="M115.7,260.6c9.8,1.4,19.8,1.5,29.7,0.4"/>
	<path fill="none" stroke="#151D1E" stroke-width="5" stroke-miterlimit="10" d="M131.4,261.4c2.6,12.1,2.5,24.7-0.2,36.8"/>
	<path fill="none" stroke="#151D1E" stroke-width="5" stroke-miterlimit="10" d="M154.6,259.7c2.2,5.4,5.4,10.4,9.6,14.6"/>
	<path fill="none" stroke="#151D1E" stroke-width="5" stroke-miterlimit="10" d="M167.8,259.9c-3.1,15.4-7,30.6-11.7,45.5"/>
	<path fill="none" stroke="#151D1E" stroke-width="5" stroke-miterlimit="10" d="M178.9,303.2c-0.3-16-0.3-32,0-48
		c2.5,0.2,5.4,0.6,7.8,1.4s4.7,2.3,5.9,4.5c1.1,2,1.3,4.4,1.2,6.7c-0.2,3.2-1.1,6.7-3.6,8.7c-2.8,2.3-6.8,2.3-10.5,2.2"/>
	<path fill="none" stroke="#151D1E" stroke-width="5" stroke-miterlimit="10" d="M202.1,261c-1.5,10.4-2.9,21-1.7,31.4
		c0.2,1.4,0.4,2.8,1.1,4c0.7,1.2,2,2.2,3.4,2.1c1.3-0.1,2.4-1,3-2.2s0.8-2.4,1-3.7c0.9-5.9,1.9-11.7,2.8-17.6
		c0.7-4.6,1.4-9.6-1.1-13.5c-1-1.6-2.5-2.9-4.3-3s-3.8,1.3-3.8,3.1"/>
	<path fill="none" stroke="#151D1E" stroke-width="5" stroke-miterlimit="10" d="M239.1,258.5c-2.8-1-5.9,0.9-7.4,3.4
		c-1.5,2.5-1.8,5.6-2,8.5c-0.4,4.2-0.7,8.4-1.1,12.6c-0.3,3.5-0.6,7.1-0.2,10.7c0.2,1.5,0.5,3,1.4,4.3c0.8,1.3,2.2,2.2,3.7,2.1
		c2.5-0.1,4-2.6,4.9-4.9c1.9-4.8,3-9.9,3.2-15.1"/>
	<path fill="none" stroke="#151D1E" stroke-width="5" stroke-miterlimit="10" d="M236.4,278.7c3.6,0.1,7.2,0.5,10.7,1.2"/>
	<g>
		<g>
			<path d="M297.3,121.3c3.3-6.1,3-15.1,3.9-21.9c0.9-6.9,0.7-16.1,5-21.9c-1.1,0.3-2.3,0.6-3.4,0.9c3.6,2.2,2.8,8.3,2.8,11.8
				c0,3.4,0.1,6.7,1.5,9.8c0.6,1.3,2.3,1.4,3.4,0.9c3.2-1.4,4.7-5,5.9-8c0.8-2,3.3-11.7,5.7-11.9c-0.7-0.4-1.4-0.8-2.2-1.2
				c1.4,2.7,0.5,8.1,0.5,11.2c0,5,0.6,10,1,15c0.4,4.6,0.5,9.2,0.7,13.7c0.2,4.8,0.8,10-2.4,14c-2,2.5,1.5,6,3.5,3.5
				c6.1-7.6,4.1-19.4,3.4-28.5c-0.5-5.9-1.3-11.8-1.3-17.8c0-4.1,0.7-9.9-1.2-13.7c-0.4-0.7-1.3-1.3-2.2-1.2c-4.4,0.3-6.4,5.2-8,8.7
				c-1.5,3.4-2.4,10.3-6.2,11.9c1.1,0.3,2.3,0.6,3.4,0.9c-3.4-7.4,2.5-18.3-6.1-23.4c-1.2-0.7-2.6-0.2-3.4,0.9
				c-3.8,5.2-4,12.1-4.8,18.3c-0.5,3.9-1,7.8-1.5,11.7c-0.5,4.2-0.5,10.1-2.5,13.9C291.5,121.6,295.8,124.1,297.3,121.3L297.3,121.3
				z"/>
		</g>
	</g>
	<g>
		<g>
			<path d="M344,110.6c2.6-4.5,4.2-9.7,6.4-14.4c1.1-2.3,2.2-5.2,4-7.1c1.3-1.3,1.2-1.8,1.9,0.4c0.7,2,0.7,4.4,0.2,6.5
				c-0.4,2.1,1.7,4,3.7,2.8c1.7-1,3.3-2.3,5-3.4c0.9-0.6,2.2-1.8,3.3-2c1.6-0.3,0.9-0.3,1,1.5c0.6,6.8-3.7,12.3-6.2,18.2
				c-1.3,2.9,3,5.5,4.3,2.5c2.9-6.8,10.4-17.3,6-25.2c-3.5-6.5-12.4,2-16,4.1c1.2,0.9,2.4,1.9,3.7,2.8c0.9-4.1,0.8-10.5-2.8-13.4
				c-2.6-2-5.3-0.8-7.3,1.3c-5.9,6.3-7.2,15.6-11.5,22.8C338,110.8,342.3,113.4,344,110.6L344,110.6z"/>
		</g>
	</g>
	<g>
		<g>
			<path d="M385,96.7c0,4-1.4,8.1-3,11.7c-1.3,2.9,3,5.5,4.3,2.5c2-4.5,3.7-9.3,3.7-14.3C390,93.4,385,93.4,385,96.7L385,96.7z"/>
		</g>
	</g>
	<g>
		<g>
			<path d="M396.7,90.7c1.5,4.2,1.5,9.1,0.7,13.5c-0.4,2.4-2.4,5.7-1.7,8.2c1.5,5,10,2.7,12.8,0.1c7.8-7.3,2.1-22.6-6.7-26.2
				c-3-1.2-4.3,3.6-1.3,4.8c5.4,2.2,10,14.8,3.8,18.4c-0.8,0.5-1.7,0.3-2.4,0.7c-1.3-0.4-1.7-0.1-1.1,1c0.1-0.3,0.2-0.5,0.2-0.8
				c0.4-2.3,1.3-4.4,1.6-6.8c0.6-4.7,0.6-9.7-1-14.2C400.5,86.3,395.7,87.6,396.7,90.7L396.7,90.7z"/>
		</g>
	</g>
	<g>
		<g>
			<path d="M423,112.9c4.8-7.2,5.4-16.2,10-23.5c-1.5-0.2-3-0.4-4.6-0.6c3.4,8.1,1.1,16.9,2,25.4c0.3,2.4,3.3,3.5,4.7,1.3
				c2-3.3,2.8-6.9,4-10.5c1.6-4.5,4.4-8.4,6.5-12.7c1.4-2.9-2.9-5.4-4.3-2.5c-1.9,4-4.6,7.7-6.3,11.9c-1.5,3.8-2.1,7.8-4.3,11.3
				c1.6,0.4,3.1,0.8,4.7,1.3c-1-8.9,1.3-18.2-2.2-26.7c-0.8-1.9-3.3-2.6-4.6-0.6c-4.6,7.3-5.2,16.3-10,23.5
				C416.9,113.1,421.2,115.6,423,112.9L423,112.9z"/>
		</g>
	</g>
	<g>
		<g>
			<path d="M411.3,165.9c3.8-8.8,0-18.3,3.3-27.1c-1.5,0.2-3,0.4-4.6,0.6c2.2,3,2.5,6.9,3.2,10.5c0.8,4.3,1.6,8.6,3.2,12.7
				c0.9,2.3,4,2.5,4.8,0c2.4-7.3,0.1-16,0.7-23.6c0.3-3.2-4.7-3.2-5,0c-0.3,3.9-0.4,7.7-0.2,11.6c0.2,3.6,0.8,7.2-0.4,10.7
				c1.6,0,3.2,0,4.8,0c-2.9-7.5-2-17.8-6.9-24.4c-1.3-1.8-3.8-1.5-4.6,0.6c-3.2,8.4,0.7,17.7-2.8,25.9
				C405.7,166.3,410,168.9,411.3,165.9L411.3,165.9z"/>
		</g>
	</g>
	<g>
		<g>
			<path d="M431.6,168.3c0-9.6,0.1-19.2-0.1-28.8c-1.6,0.4-3.1,0.8-4.7,1.3c2.5,4.1,3.8,8.6,5.2,13.2c1.3,4.5,3.3,8.8,4.4,13.3
				c0.6,2.3,4.3,2.4,4.8,0c1-4.5,0.3-8.9,0.5-13.4c0.2-5.8,1.7-11.4,1.9-17.2c0.1-3.2-4.9-3.2-5,0c-0.2,5.3-1.3,10.4-1.8,15.6
				c-0.4,4.6,0.6,9.2-0.4,13.7c1.6,0,3.2,0,4.8,0c-1.3-5-3.4-9.8-4.9-14.8c-1.3-4.5-2.8-8.8-5.2-12.9c-1.2-2.1-4.7-1.3-4.7,1.3
				c0.2,9.6,0.1,19.2,0.1,28.8C426.6,171.6,431.6,171.6,431.6,168.3L431.6,168.3z"/>
		</g>
	</g>
	<rect x="52.1" y="461.4" fill="#0394A6" width="134.8" height="55.6"/>
	<rect x="52.1" y="496.4" fill="#4AAEBC" width="134.8" height="55.6"/>
	<rect x="186.6" y="461.4" fill="#FFBE5F" width="134.8" height="55.6"/>
	<rect x="186.6" y="496.4" fill="#F18F01" width="134.8" height="55.6"/>
	<rect x="321.1" y="461.4" fill="#0C5196" width="134.8" height="55.6"/>
	<rect x="321.1" y="496.4" fill="#337AB7" width="134.8" height="55.6"/>
	<rect x="455.9" y="461.4" fill="#F9808B" width="134.8" height="55.6"/>
	<rect x="590.7" y="461.4" fill="#FF5C4C" width="134.8" height="55.6"/>
	<g>
		<path fill="#0C5196" d="M369.6,391.9c-1.9-1.3-4-1-6.2-0.7c-2.2,0.3-6.5,0.6-8.4,1.7c-6.6,3.9-11.7,10.5-14.4,17.6
			c-5.7,14.8,3.7,32.2,18.4,36.6c14.6,4.4,29.1-4.5,34.3-18.3c2.8-7.6,0.4-15.6-3.8-22.2c-4.6-7.1-11.5-11.1-18.9-14.8
			c-2.3-1.1-4.2,2.3-2,3.4c11.3,5.6,24.6,15.4,21.7,30.1c-2.5,12.5-15.4,20.2-27.4,18.6c-13.8-1.9-22-16.3-19.4-29.4
			c1.3-6.4,5.5-11.4,10.1-15.7c2.3-2.2,10.9-5.5,14-3.5C369.7,396.7,371.7,393.3,369.6,391.9z"/>
		<path fill="#0C5196" d="M362.5,423.9v1c0,2.5,3.9,2.5,3.9,0c0.1-6.5,0.9-12.9-0.1-19.4c-0.2-1.3-1.9-1.8-2.9-1.2
			c-2.9,1.8-4.8,4.6-5.2,8c-0.2,1.4,1.8,2.5,3,1.7c2.7-2,2.6-5.2,4.6-7.6l-2.4,0.3c1.4,0.8,2.1,1.9,2.2,3.5c0.2,2.5,4.1,2.5,3.9,0
			c-0.3-3.1-1.5-5.3-4.1-6.9c-0.7-0.4-1.8-0.4-2.4,0.3c-1.5,1.8-2,5.7-3.8,7l3,1.7c0.2-1.9,1.6-3.6,3.2-4.6l-2.9-1.2
			c0.9,6.1,0,12.2-0.1,18.3h3.9v-1C366.4,421.4,362.5,421.4,362.5,423.9z"/>
		<path fill="#0C5196" d="M365.5,425.9c2.7,0,5.4,0,8.1-0.3c2-0.2,3.8-0.7,5.8-0.7c2.5,0,2.5-3.9,0-3.9h-0.3c-2.5,0-2.5,3.9,0,3.9
			h0.3c2.5,0,2.5-3.9,0-3.9c-1.6,0-3,0.1-4.6,0.5c-3,0.7-6.3,0.5-9.3,0.5C362.9,422,362.9,425.9,365.5,425.9z"/>
		<path fill="#0C5196" d="M379.7,422.9c0.4,0.4,0.8,0.6,1.4,0.8c0.4,0.1,0.8,0.2,1.1,0.5c-0.1-0.5-0.1-0.9-0.2-1.4
			c-0.3,0.5-0.7,0.7-1.1,1c-0.6,0.4-1,0.9-1.4,1.5c-0.7,1.3,1.3,2.5,2,1.2c0.3-0.5,0.7-0.7,1.1-1c0.6-0.4,1-0.9,1.4-1.5
			c0.2-0.4,0.2-1.1-0.2-1.4c-0.4-0.4-0.8-0.6-1.4-0.8c-0.4-0.1-0.8-0.2-1.1-0.5C380.2,420.2,378.6,421.9,379.7,422.9L379.7,422.9z"
			/>
	</g>
	<g>
		<path fill="none" stroke="#F18F01" stroke-width="2.76" d="M278.3,415.1c0.8-4.1-0.4-10.3-0.4-14.5c0-6.2,0.4-12.4,0.4-18.6
			c0-2.1,0-4.1-0.4-6.6c0-1.7-0.4-4.5-1.2-5.8c-1.2-1.7-3.3-2.5-4.9-2.9c-2.4-0.4-4.5-0.8-6.9-0.8c-3.7-0.8-7.3-0.4-11-0.4h-22.8
			c-3.7,0-7.3,0-10.6,0.4c-2,0-4.1,0-6.1,0.4c-1.6,0-2.4,1.2-3.3,2.5c-2.8,4.5-1.2,9.5-1.2,14.5c0,3.3,0,6.6-0.4,9.9
			c-0.4,3.3,0,6.6-0.4,9.5c-0.4,2.5-0.4,5-0.4,7.4c0,1.2,0.4,2.5,0.4,3.7c0,0.8,0.6,2.5,2,2.9c1.5,0.4,6.5,1.3,9.8,1.2s6.9,0,10.2,0
			c5.3,0,10.6-0.8,15.5-0.8c8.5-0.4,16.7-1.1,25.2-0.4C274.2,417,277.9,417.1,278.3,415.1L278.3,415.1z"/>
		<path fill="none" stroke="#F18F01" stroke-width="2.76" d="M217.2,411.3c-4.3-0.3-2.6-10.1-2.5-15c0.1-2.5,0.1-10.3,0.1-12.8
			c0-2,0.4-11,2-11.9c0.4-0.4,2.9-0.4,3.7-0.4c0.8,0,7.8-0.8,10.2-0.8c1.6-0.4,7.8,0,9.4,0h18.4c2.5,0,5.3,0.4,8.2,0.4
			c0.8,0,5.3,0,6.1,0.8c0.8,0.8,1.2,2.5,1.2,3.7c0.4,3.7,0.4,7.4,0.4,11.4c0,2-0.4,4.1-0.4,6.1v6.5c0,2.5-0.3,9.5-1.5,11
			C271.4,411.8,221.6,411.6,217.2,411.3z M277.6,415.9c1,0.5,11.4,6.8,15.1,9.2c2,1.2,4.5,2.1,6.5,3.3c2,0.8,4.1,2.1,6.1,3.3
			c1.6,0.8,3.4,1.5,4.9,2.5c2,1.3,3.4,2,2.7,3.3c-0.7,1.3-0.3,1.6-3.1,2.5c-3.2,1.1-5.7,1.7-9,2.1c-7.7,1.7-15.9,2.1-24.1,2.9
			c-6.5,0.8-12.1,0.5-18.6,0.5c-0.8,0-4,0.1-6.7-0.1c-3-0.2-7.4-1.7-11.6-4.6c-4.3-2.9-14.3-8.5-16.5-10.3c-2.4-2.1-6.1-5.4-8.2-7.9
			c-2.3-2.7-4.5-5.8-5.7-7"/>
		<path fill="none" stroke="#F18F01" stroke-width="2.76" d="M312.8,436.4c0,1.2,1.1,6.4-1.4,7.2c-1.3,0.4-4.9,1.2-6.1,1.6
			c-3.3,0.8-10.5,1.7-13.8,2.1c-8.2,1.6-32.8,3.1-34.4,3.1c-3.7,0-8.6,0-11.9-1.6c-2-0.8-15.6-7.4-17.6-9c-2.5-1.6-4.9-2.9-7.4-4.9
			c-4.5-3.3-9.4-6.6-12.3-11.5c-0.8-1.2-1.2-2.9-0.8-4.5c0-1.2,0.4-2.9,1.6-3.3"/>
		<path fill="none" stroke="#F18F01" stroke-width="2.76" d="M285.1,434.6c1.6,0.9,4.7,3.1,5.4,4.1c0.7,1-2.1,1.7-2.9,1.7
			c-2.9,0-12.4,1.8-14,0.8c-1.7-1-4.6-3.3-5-4.1c-0.4-0.4-0.4-1.7-0.4-1.7C268.4,434.5,283.5,433.7,285.1,434.6z"/>
		<g>
			<path fill="#F18F01" d="M277.3,421.9h-0.4 M277.3,423h-0.4c-1.3,0-1.3-2.1,0-2.1h0.4C278.6,420.9,278.6,423,277.3,423z
				 M272,422.1c-1.3,0-1.3-2.1,0-2.1C273.3,420.1,273.3,422.1,272,422.1z M267.1,422.6c-1.3,0-1.3-2.1,0-2.1
				C268.4,420.5,268.4,422.6,267.1,422.6z M261,422.1c-1.3,0-1.3-2.1,0-2.1C262.3,420.1,262.3,422.1,261,422.1z M255.7,422.6
				c-1.3,0-1.3-2.1,0-2.1C257.1,420.5,257.1,422.6,255.7,422.6z M251.7,422.3C251.7,422.3,251.3,422.3,251.7,422.3 M251.7,423.4
				h-0.2c-1.3,0-1.3-2.1,0-2.1h0.2C253,421.3,253,423.4,251.7,423.4h-0.2c-1.3,0-1.3-2.1,0-2.1h0.2C253,421.3,253,423.4,251.7,423.4
				z M246.4,423.4c-1.3,0-1.3-2.1,0-2.1C247.7,421.3,247.7,423.4,246.4,423.4z M241.9,422.7v-0.4 M240.9,422.7v-0.4
				c0-1.3,2.1-1.3,2.1,0v0.4C242.9,424.1,240.9,424.1,240.9,422.7z M237.4,422.3H237 M237.4,423.4H237c-1.3,0-1.3-2.1,0-2.1h0.4
				C238.8,421.3,238.8,423.4,237.4,423.4z M233.8,423.4c-1.3,0-1.3-2.1,0-2.1C235.1,421.3,235.1,423.4,233.8,423.4z M229.7,423.4
				c-1.3,0-1.3-2.1,0-2.1C231,421.3,231,423.4,229.7,423.4z M224,422.3C224,422.3,223.6,421.9,224,422.3 M223.3,423.1l-0.2-0.2
				c-0.9-0.9,0.5-2.4,1.5-1.5l0.2,0.2C225.7,422.5,224.2,424,223.3,423.1l-0.2-0.2c-0.9-0.9,0.5-2.4,1.5-1.5l0.2,0.2
				C225.7,422.5,224.2,424,223.3,423.1z M283.4,426.2c-1.3,0-1.3-2.1,0-2.1C284.7,424.2,284.7,426.2,283.4,426.2z M276.9,425.6
				C277.3,425.6,277.3,425.6,276.9,425.6 M276.9,426.6c-1.3,0-1.3-2.1,0-2.1C278.2,424.6,278.2,426.6,276.9,426.6z M271.2,426.6
				c-1.3,0-1.3-2.1,0-2.1C272.5,424.6,272.5,426.6,271.2,426.6z M265.1,427c-1.3,0-1.3-2.1,0-2.1C266.4,425,266.4,427,265.1,427z
				 M258.2,427c-1.3,0-1.3-2.1,0-2.1C259.5,425,259.5,427,258.2,427z M251.7,427.5c-1.3,0-1.3-2.1,0-2.1
				C253,425.4,253,427.5,251.7,427.5z M245.2,428.3c-1.3,0-1.3-2.1,0-2.1C246.5,426.2,246.5,428.3,245.2,428.3L245.2,428.3z
				 M238.7,428.7c-1.3,0-1.3-2.1,0-2.1S240,428.7,238.7,428.7z M233.4,428.7c-1.3,0-1.3-2.1,0-2.1
				C234.7,426.6,234.7,428.7,233.4,428.7z M289.1,429.9c-1.3,0-1.3-2.1,0-2.1C290.4,427.8,290.4,429.9,289.1,429.9z M279.3,429.3
				h0.4c0-0.4,0-0.4,0,0"/>
			<path fill="#F18F01" d="M279.3,428.2h0.4l-1,1V429c0-1.3,2.1-1.3,2.1,0v0.3c0,1.3-2.1,1.3-2.1,0V429c0-1.3,2.1-1.3,2.1,0v0.3
				c0,0.6-0.5,1-1,1h-0.4C278,430.3,278,428.2,279.3,428.2z M271.6,429.7c0-0.4,0-0.4-0.4-0.4"/>
			<path fill="#F18F01" d="M270.6,429.7c0-0.7,1.3,0.6,0.6,0.6c-1.3,0-1.3-2.1,0-2.1c0.9,0,1.4,0.5,1.4,1.4
				C272.6,431,270.6,431,270.6,429.7z M263.5,431.5c-1.3,0-1.3-2.1,0-2.1C264.8,429.5,264.8,431.5,263.5,431.5z M255.7,430.9v-0.4
				 M254.7,430.9v-0.4c0-1.3,2.1-1.3,2.1,0v0.4C256.8,432.3,254.7,432.3,254.7,430.9z M248.8,432c-1.3,0-1.3-2.1,0-2.1
				S250.1,432,248.8,432z M242.7,432.4c-1.3,0-1.3-2.1,0-2.1C244.1,430.3,244.1,432.4,242.7,432.4z M237,431.3v-0.4 M236,431.3v-0.4
				c0-1.3,2.1-1.3,2.1,0v0.4C238.1,432.7,236,432.7,236,431.3z"/>
		</g>
		<path fill="none" stroke="#F18F01" stroke-width="2.76" stroke-linecap="round" d="M244.8,382.4c3.8,2.9,7.1,6.7,10.4,10.5
			 M239.2,385.6c1.6,1.6,2.8,3.2,4.4,4.9c0.8,1.2,1.6,2.4,2.8,3.2"/>
	</g>
	<g>
		<path d="M70.4,572.1l-0.8,2.5h-1.1l2.7-8.1h1.3l2.8,8.1h-1.1l-0.9-2.5H70.4z M73,571.3l-0.8-2.3c-0.2-0.5-0.3-1-0.4-1.5h0
			c-0.1,0.5-0.3,1-0.4,1.5l-0.8,2.3H73z"/>
		<path d="M76.3,570.4c0-0.6,0-1.1,0-1.6h0.9l0.1,1h0c0.3-0.6,1-1.1,1.9-1.1c0.8,0,2.1,0.5,2.1,2.5v3.5h-1.1v-3.3
			c0-0.9-0.3-1.7-1.3-1.7c-0.7,0-1.2,0.5-1.4,1.1c0,0.1-0.1,0.3-0.1,0.5v3.5h-1.1V570.4z"/>
		<path d="M83,570.4c0-0.6,0-1.1,0-1.6h0.9l0.1,1h0c0.3-0.6,1-1.1,1.9-1.1c0.8,0,2.1,0.5,2.1,2.5v3.5h-1.1v-3.3
			c0-0.9-0.3-1.7-1.3-1.7c-0.7,0-1.2,0.5-1.4,1.1c0,0.1-0.1,0.3-0.1,0.5v3.5H83V570.4z"/>
		<path d="M94.5,573.1c0,0.6,0,1.1,0,1.6h-0.9l-0.1-0.9h0c-0.3,0.5-0.9,1.1-1.9,1.1c-0.9,0-2-0.5-2-2.5v-3.4h1.1v3.2
			c0,1.1,0.3,1.8,1.3,1.8c0.7,0,1.2-0.5,1.4-1c0.1-0.2,0.1-0.3,0.1-0.5v-3.6h1.1V573.1z"/>
		<path d="M99.5,574.6l-0.1-0.7h0c-0.3,0.5-0.9,0.9-1.8,0.9c-1.2,0-1.8-0.8-1.8-1.7c0-1.4,1.2-2.2,3.5-2.2v-0.1
			c0-0.5-0.1-1.3-1.3-1.3c-0.5,0-1.1,0.2-1.5,0.4l-0.2-0.7c0.5-0.3,1.2-0.5,1.9-0.5c1.8,0,2.2,1.2,2.2,2.4v2.2c0,0.5,0,1,0.1,1.4
			H99.5z M99.3,571.7c-1.2,0-2.5,0.2-2.5,1.3c0,0.7,0.5,1,1,1c0.8,0,1.2-0.5,1.4-1c0-0.1,0.1-0.2,0.1-0.3V571.7z"/>
		<path d="M102,566.1h1.1v8.5H102V566.1z"/>
		<path d="M105.3,568.8l1.3,3.4c0.1,0.4,0.3,0.8,0.4,1.2h0c0.1-0.3,0.2-0.8,0.4-1.2l1.2-3.4h1.1L108,573c-0.8,2-1.3,3-2,3.6
			c-0.5,0.5-1,0.6-1.3,0.7l-0.3-0.9c0.3-0.1,0.6-0.3,0.9-0.5c0.3-0.2,0.6-0.6,0.9-1.2c0-0.1,0.1-0.2,0.1-0.3c0-0.1,0-0.1-0.1-0.3
			l-2.1-5.3H105.3z"/>
		<path d="M113.5,568.8l0.8,3c0.2,0.6,0.3,1.2,0.4,1.8h0c0.1-0.6,0.3-1.2,0.5-1.8l0.9-3h0.9l0.9,2.9c0.2,0.7,0.4,1.3,0.5,1.9h0
			c0.1-0.6,0.3-1.2,0.4-1.9l0.8-2.9h1l-1.9,5.8h-1l-0.9-2.8c-0.2-0.6-0.4-1.2-0.5-1.9h0c-0.1,0.7-0.3,1.3-0.5,1.9l-0.9,2.8h-1
			l-1.8-5.8H113.5z"/>
		<path d="M122.4,571.9c0,1.4,0.9,2,2,2c0.8,0,1.2-0.1,1.6-0.3l0.2,0.8c-0.4,0.2-1,0.4-1.9,0.4c-1.8,0-2.9-1.2-2.9-2.9
			c0-1.8,1-3.1,2.7-3.1c1.9,0,2.4,1.7,2.4,2.7c0,0.2,0,0.4,0,0.5H122.4z M125.5,571.2c0-0.7-0.3-1.7-1.5-1.7c-1.1,0-1.5,1-1.6,1.7
			H125.5z"/>
		<path d="M130.3,570.7c0-0.7,0-1.3,0-1.9h0.9l0,1h0c0.4-0.7,1.1-1.1,2.1-1.1c1.4,0,2.5,1.2,2.5,3c0,2.1-1.3,3.1-2.6,3.1
			c-0.8,0-1.4-0.3-1.8-0.9h0v3.2h-1V570.7z M131.4,572.3c0,0.2,0,0.3,0,0.4c0.2,0.7,0.8,1.2,1.6,1.2c1.1,0,1.8-0.9,1.8-2.2
			c0-1.2-0.6-2.2-1.7-2.2c-0.7,0-1.4,0.5-1.6,1.3c0,0.1-0.1,0.3-0.1,0.4V572.3z"/>
		<path d="M137.2,570.6c0-0.7,0-1.3,0-1.8h0.9l0,1.1h0c0.3-0.8,0.9-1.3,1.6-1.3c0.1,0,0.2,0,0.3,0v1c-0.1,0-0.2,0-0.4,0
			c-0.7,0-1.3,0.6-1.4,1.4c0,0.1,0,0.3,0,0.5v3.1h-1V570.6z"/>
		<path d="M146.2,571.7c0,2.1-1.5,3.1-2.9,3.1c-1.6,0-2.8-1.2-2.8-3c0-1.9,1.3-3.1,2.9-3.1C145.1,568.7,146.2,569.9,146.2,571.7z
			 M141.6,571.7c0,1.3,0.7,2.2,1.8,2.2c1,0,1.8-0.9,1.8-2.3c0-1-0.5-2.2-1.7-2.2C142.1,569.5,141.6,570.6,141.6,571.7z"/>
		<path d="M152.6,566.1v7c0,0.5,0,1.1,0,1.5h-0.9l0-1h0c-0.3,0.6-1,1.1-2,1.1c-1.4,0-2.5-1.2-2.5-3c0-1.9,1.2-3.1,2.6-3.1
			c0.9,0,1.5,0.4,1.8,0.9h0v-3.5H152.6z M151.5,571.2c0-0.1,0-0.3,0-0.4c-0.2-0.7-0.7-1.2-1.5-1.2c-1.1,0-1.7,1-1.7,2.2
			c0,1.2,0.6,2.1,1.7,2.1c0.7,0,1.4-0.5,1.5-1.3c0-0.1,0-0.3,0-0.5V571.2z"/>
		<path d="M159.2,573.1c0,0.6,0,1.1,0,1.6h-0.9l-0.1-0.9h0c-0.3,0.5-0.9,1.1-1.9,1.1c-0.9,0-2-0.5-2-2.5v-3.4h1.1v3.2
			c0,1.1,0.3,1.8,1.3,1.8c0.7,0,1.2-0.5,1.4-1c0.1-0.2,0.1-0.3,0.1-0.5v-3.6h1.1V573.1z"/>
		<path d="M165.1,574.4c-0.3,0.1-0.9,0.3-1.7,0.3c-1.8,0-2.9-1.2-2.9-3c0-1.8,1.2-3.1,3.1-3.1c0.6,0,1.2,0.2,1.5,0.3l-0.2,0.8
			c-0.3-0.1-0.6-0.3-1.2-0.3c-1.3,0-2.1,1-2.1,2.2c0,1.3,0.9,2.2,2,2.2c0.6,0,1-0.2,1.3-0.3L165.1,574.4z"/>
		<path d="M166.8,571.9c0,1.4,0.9,2,2,2c0.8,0,1.2-0.1,1.6-0.3l0.2,0.8c-0.4,0.2-1,0.4-1.9,0.4c-1.8,0-2.9-1.2-2.9-2.9
			c0-1.8,1-3.1,2.7-3.1c1.9,0,2.4,1.7,2.4,2.7c0,0.2,0,0.4,0,0.5H166.8z M169.9,571.2c0-0.7-0.3-1.7-1.5-1.7c-1.1,0-1.5,1-1.6,1.7
			H169.9z"/>
		<path d="M174.5,574.6V574l0.8-0.8c2-1.9,2.9-2.9,2.9-4.1c0-0.8-0.4-1.5-1.5-1.5c-0.7,0-1.3,0.4-1.7,0.7l-0.3-0.7
			c0.5-0.5,1.3-0.8,2.2-0.8c1.7,0,2.4,1.2,2.4,2.3c0,1.4-1,2.6-2.7,4.2l-0.6,0.6v0h3.5v0.9H174.5z"/>
		<path d="M183.4,574.6c0-0.4,0-1,0-1.5v-7h1v3.6h0c0.4-0.6,1-1.1,2-1.1c1.4,0,2.5,1.2,2.4,3c0,2.1-1.3,3.1-2.6,3.1
			c-0.8,0-1.5-0.3-1.9-1.1h0l0,1H183.4z M184.5,572.3c0,0.1,0,0.3,0,0.4c0.2,0.7,0.8,1.2,1.6,1.2c1.1,0,1.8-0.9,1.8-2.2
			c0-1.2-0.6-2.2-1.7-2.2c-0.7,0-1.4,0.5-1.6,1.3c0,0.1-0.1,0.3-0.1,0.4V572.3z"/>
		<path d="M191.5,567.2c0,0.4-0.3,0.6-0.7,0.6c-0.4,0-0.6-0.3-0.6-0.6c0-0.4,0.3-0.7,0.7-0.7C191.2,566.5,191.5,566.8,191.5,567.2z
			 M190.3,574.6v-5.8h1.1v5.8H190.3z"/>
		<path d="M193.1,566.1h1.1v8.5h-1.1V566.1z"/>
		<path d="M196,566.1h1.1v8.5H196V566.1z"/>
		<path d="M200,567.2c0,0.4-0.3,0.6-0.7,0.6c-0.4,0-0.6-0.3-0.6-0.6c0-0.4,0.3-0.7,0.7-0.7C199.7,566.5,200,566.8,200,567.2z
			 M198.8,574.6v-5.8h1.1v5.8H198.8z"/>
		<path d="M206.8,571.7c0,2.1-1.5,3.1-2.9,3.1c-1.6,0-2.8-1.2-2.8-3c0-1.9,1.3-3.1,2.9-3.1C205.7,568.7,206.8,569.9,206.8,571.7z
			 M202.2,571.7c0,1.3,0.7,2.2,1.8,2.2c1,0,1.8-0.9,1.8-2.3c0-1-0.5-2.2-1.7-2.2C202.8,569.5,202.2,570.6,202.2,571.7z"/>
		<path d="M208.2,570.4c0-0.6,0-1.1,0-1.6h0.9l0.1,1h0c0.3-0.6,1-1.1,1.9-1.1c0.8,0,2.1,0.5,2.1,2.5v3.5h-1.1v-3.3
			c0-0.9-0.3-1.7-1.3-1.7c-0.7,0-1.2,0.5-1.4,1.1c0,0.1-0.1,0.3-0.1,0.5v3.5h-1.1V570.4z"/>
		<path d="M217.4,570.4c0-0.6,0-1.1,0-1.6h0.9l0,0.9h0c0.3-0.6,0.9-1.1,1.8-1.1c0.8,0,1.4,0.5,1.6,1.2h0c0.2-0.3,0.4-0.6,0.6-0.8
			c0.3-0.3,0.7-0.4,1.3-0.4c0.8,0,1.9,0.5,1.9,2.5v3.4h-1v-3.3c0-1.1-0.4-1.8-1.3-1.8c-0.6,0-1.1,0.4-1.2,1c0,0.1-0.1,0.3-0.1,0.5
			v3.6h-1v-3.5c0-0.9-0.4-1.6-1.2-1.6c-0.7,0-1.1,0.5-1.3,1.1c-0.1,0.2-0.1,0.3-0.1,0.5v3.5h-1V570.4z"/>
		<path d="M232.6,571.7c0,2.1-1.5,3.1-2.9,3.1c-1.6,0-2.8-1.2-2.8-3c0-1.9,1.3-3.1,2.9-3.1C231.5,568.7,232.6,569.9,232.6,571.7z
			 M228,571.7c0,1.3,0.7,2.2,1.8,2.2c1,0,1.8-0.9,1.8-2.3c0-1-0.5-2.2-1.7-2.2C228.6,569.5,228,570.6,228,571.7z"/>
		<path d="M233.9,574.6c0-0.4,0-1,0-1.5v-7h1v3.6h0c0.4-0.6,1-1.1,2-1.1c1.4,0,2.5,1.2,2.4,3c0,2.1-1.3,3.1-2.6,3.1
			c-0.8,0-1.5-0.3-1.9-1.1h0l0,1H233.9z M235,572.3c0,0.1,0,0.3,0,0.4c0.2,0.7,0.8,1.2,1.6,1.2c1.1,0,1.8-0.9,1.8-2.2
			c0-1.2-0.6-2.2-1.7-2.2c-0.7,0-1.4,0.5-1.6,1.3c0,0.1-0.1,0.3-0.1,0.4V572.3z"/>
		<path d="M242,567.2c0,0.4-0.3,0.6-0.7,0.6c-0.4,0-0.6-0.3-0.6-0.6c0-0.4,0.3-0.7,0.7-0.7C241.7,566.5,242,566.8,242,567.2z
			 M240.8,574.6v-5.8h1.1v5.8H240.8z"/>
		<path d="M243.6,566.1h1.1v8.5h-1.1V566.1z"/>
		<path d="M247,571.9c0,1.4,0.9,2,2,2c0.8,0,1.2-0.1,1.6-0.3l0.2,0.8c-0.4,0.2-1,0.4-1.9,0.4c-1.8,0-2.9-1.2-2.9-2.9
			c0-1.8,1-3.1,2.7-3.1c1.9,0,2.4,1.7,2.4,2.7c0,0.2,0,0.4,0,0.5H247z M250.1,571.2c0-0.7-0.3-1.7-1.5-1.7c-1.1,0-1.5,1-1.6,1.7
			H250.1z"/>
		<path d="M252.3,573.6c0.3,0.2,0.9,0.4,1.4,0.4c0.8,0,1.1-0.4,1.1-0.9c0-0.5-0.3-0.8-1.1-1.1c-1-0.4-1.5-0.9-1.5-1.6
			c0-0.9,0.8-1.7,2-1.7c0.6,0,1.1,0.2,1.4,0.4l-0.3,0.8c-0.2-0.1-0.6-0.3-1.2-0.3c-0.6,0-1,0.4-1,0.8c0,0.5,0.3,0.7,1.1,1
			c1,0.4,1.5,0.9,1.5,1.8c0,1-0.8,1.7-2.2,1.7c-0.6,0-1.2-0.2-1.6-0.4L252.3,573.6z"/>
		<path d="M263,574.6l-0.1-0.7h0c-0.3,0.5-0.9,0.9-1.8,0.9c-1.2,0-1.8-0.8-1.8-1.7c0-1.4,1.2-2.2,3.5-2.2v-0.1
			c0-0.5-0.1-1.3-1.3-1.3c-0.5,0-1.1,0.2-1.5,0.4l-0.2-0.7c0.5-0.3,1.2-0.5,1.9-0.5c1.8,0,2.2,1.2,2.2,2.4v2.2c0,0.5,0,1,0.1,1.4
			H263z M262.8,571.7c-1.2,0-2.5,0.2-2.5,1.3c0,0.7,0.5,1,1,1c0.8,0,1.2-0.5,1.4-1c0-0.1,0.1-0.2,0.1-0.3V571.7z"/>
		<path d="M265.5,570.4c0-0.6,0-1.1,0-1.6h0.9l0.1,1h0c0.3-0.6,1-1.1,1.9-1.1c0.8,0,2.1,0.5,2.1,2.5v3.5h-1.1v-3.3
			c0-0.9-0.3-1.7-1.3-1.7c-0.7,0-1.2,0.5-1.4,1.1c0,0.1-0.1,0.3-0.1,0.5v3.5h-1.1V570.4z"/>
		<path d="M277.2,566.1v7c0,0.5,0,1.1,0,1.5h-0.9l0-1h0c-0.3,0.6-1,1.1-2,1.1c-1.4,0-2.5-1.2-2.5-3c0-1.9,1.2-3.1,2.6-3.1
			c0.9,0,1.5,0.4,1.8,0.9h0v-3.5H277.2z M276.2,571.2c0-0.1,0-0.3,0-0.4c-0.2-0.7-0.7-1.2-1.5-1.2c-1.1,0-1.7,1-1.7,2.2
			c0,1.2,0.6,2.1,1.7,2.1c0.7,0,1.4-0.5,1.5-1.3c0-0.1,0-0.3,0-0.5V571.2z"/>
		<path d="M282.8,567.2v1.7h1.5v0.8h-1.5v3.1c0,0.7,0.2,1.1,0.8,1.1c0.3,0,0.5,0,0.6-0.1l0,0.8c-0.2,0.1-0.5,0.1-0.9,0.1
			c-0.5,0-0.9-0.2-1.1-0.4c-0.3-0.3-0.4-0.8-0.4-1.5v-3.2h-0.9v-0.8h0.9v-1.4L282.8,567.2z"/>
		<path d="M285.5,566.1h1.1v3.6h0c0.2-0.3,0.4-0.6,0.8-0.7c0.3-0.2,0.7-0.3,1.1-0.3c0.8,0,2,0.5,2,2.5v3.5h-1.1v-3.3
			c0-0.9-0.3-1.7-1.3-1.7c-0.7,0-1.2,0.5-1.4,1.1c-0.1,0.1-0.1,0.3-0.1,0.5v3.5h-1.1V566.1z"/>
		<path d="M292.7,571.9c0,1.4,0.9,2,2,2c0.8,0,1.2-0.1,1.6-0.3l0.2,0.8c-0.4,0.2-1,0.4-1.9,0.4c-1.8,0-2.9-1.2-2.9-2.9
			c0-1.8,1-3.1,2.7-3.1c1.9,0,2.4,1.7,2.4,2.7c0,0.2,0,0.4,0,0.5H292.7z M295.8,571.2c0-0.7-0.3-1.7-1.5-1.7c-1.1,0-1.5,1-1.6,1.7
			H295.8z"/>
		<path d="M299.3,567.2c0,0.4-0.3,0.6-0.7,0.6c-0.4,0-0.6-0.3-0.6-0.6c0-0.4,0.3-0.7,0.7-0.7C299.1,566.5,299.3,566.8,299.3,567.2z
			 M298.2,574.6v-5.8h1.1v5.8H298.2z"/>
		<path d="M301,570.6c0-0.7,0-1.3,0-1.8h0.9l0,1.1h0c0.3-0.8,0.9-1.3,1.6-1.3c0.1,0,0.2,0,0.3,0v1c-0.1,0-0.2,0-0.4,0
			c-0.7,0-1.3,0.6-1.4,1.4c0,0.1,0,0.3,0,0.5v3.1h-1V570.6z"/>
		<path d="M311.6,574.4c-0.3,0.1-0.9,0.3-1.7,0.3c-1.8,0-2.9-1.2-2.9-3c0-1.8,1.2-3.1,3.1-3.1c0.6,0,1.2,0.2,1.5,0.3l-0.2,0.8
			c-0.3-0.1-0.6-0.3-1.2-0.3c-1.3,0-2.1,1-2.1,2.2c0,1.3,0.9,2.2,2,2.2c0.6,0,1-0.2,1.3-0.3L311.6,574.4z"/>
		<path d="M316,574.6l-0.1-0.7h0c-0.3,0.5-0.9,0.9-1.8,0.9c-1.2,0-1.8-0.8-1.8-1.7c0-1.4,1.2-2.2,3.5-2.2v-0.1
			c0-0.5-0.1-1.3-1.3-1.3c-0.5,0-1.1,0.2-1.5,0.4l-0.2-0.7c0.5-0.3,1.2-0.5,1.9-0.5c1.8,0,2.2,1.2,2.2,2.4v2.2c0,0.5,0,1,0.1,1.4
			H316z M315.9,571.7c-1.2,0-2.5,0.2-2.5,1.3c0,0.7,0.5,1,1,1c0.8,0,1.2-0.5,1.4-1c0-0.1,0.1-0.2,0.1-0.3V571.7z"/>
		<path d="M318.6,570.6c0-0.7,0-1.3,0-1.8h0.9l0,1.1h0c0.3-0.8,0.9-1.3,1.6-1.3c0.1,0,0.2,0,0.3,0v1c-0.1,0-0.2,0-0.4,0
			c-0.7,0-1.3,0.6-1.4,1.4c0,0.1,0,0.3,0,0.5v3.1h-1V570.6z"/>
		<path d="M322.5,574.6c0-0.4,0-1,0-1.5v-7h1v3.6h0c0.4-0.6,1-1.1,2-1.1c1.4,0,2.5,1.2,2.4,3c0,2.1-1.3,3.1-2.6,3.1
			c-0.8,0-1.5-0.3-1.9-1.1h0l0,1H322.5z M323.6,572.3c0,0.1,0,0.3,0,0.4c0.2,0.7,0.8,1.2,1.6,1.2c1.1,0,1.8-0.9,1.8-2.2
			c0-1.2-0.6-2.2-1.7-2.2c-0.7,0-1.4,0.5-1.6,1.3c0,0.1-0.1,0.3-0.1,0.4V572.3z"/>
		<path d="M334.6,571.7c0,2.1-1.5,3.1-2.9,3.1c-1.6,0-2.8-1.2-2.8-3c0-1.9,1.3-3.1,2.9-3.1C333.5,568.7,334.6,569.9,334.6,571.7z
			 M330,571.7c0,1.3,0.7,2.2,1.8,2.2c1,0,1.8-0.9,1.8-2.3c0-1-0.5-2.2-1.7-2.2C330.6,569.5,330,570.6,330,571.7z"/>
		<path d="M336,570.4c0-0.6,0-1.1,0-1.6h0.9l0.1,1h0c0.3-0.6,1-1.1,1.9-1.1c0.8,0,2.1,0.5,2.1,2.5v3.5h-1.1v-3.3
			c0-0.9-0.3-1.7-1.3-1.7c-0.7,0-1.2,0.5-1.4,1.1c0,0.1-0.1,0.3-0.1,0.5v3.5H336V570.4z"/>
		<path d="M345.3,574.6v-5h-0.8v-0.8h0.8v-0.3c0-0.8,0.2-1.6,0.7-2c0.4-0.4,0.9-0.5,1.4-0.5c0.4,0,0.7,0.1,0.9,0.2l-0.1,0.8
			c-0.2-0.1-0.4-0.1-0.7-0.1c-0.9,0-1.1,0.8-1.1,1.7v0.3h1.4v0.8h-1.4v5H345.3z"/>
		<path d="M353.8,571.7c0,2.1-1.5,3.1-2.9,3.1c-1.6,0-2.8-1.2-2.8-3c0-1.9,1.3-3.1,2.9-3.1C352.7,568.7,353.8,569.9,353.8,571.7z
			 M349.2,571.7c0,1.3,0.7,2.2,1.8,2.2c1,0,1.8-0.9,1.8-2.3c0-1-0.5-2.2-1.7-2.2C349.7,569.5,349.2,570.6,349.2,571.7z"/>
		<path d="M360.4,571.7c0,2.1-1.5,3.1-2.9,3.1c-1.6,0-2.8-1.2-2.8-3c0-1.9,1.3-3.1,2.9-3.1C359.2,568.7,360.4,569.9,360.4,571.7z
			 M355.8,571.7c0,1.3,0.7,2.2,1.8,2.2c1,0,1.8-0.9,1.8-2.3c0-1-0.5-2.2-1.7-2.2C356.3,569.5,355.8,570.6,355.8,571.7z"/>
		<path d="M363,567.2v1.7h1.5v0.8H363v3.1c0,0.7,0.2,1.1,0.8,1.1c0.3,0,0.5,0,0.6-0.1l0,0.8c-0.2,0.1-0.5,0.1-0.9,0.1
			c-0.5,0-0.9-0.2-1.1-0.4c-0.3-0.3-0.4-0.8-0.4-1.5v-3.2h-0.9v-0.8h0.9v-1.4L363,567.2z"/>
		<path d="M365.7,570.7c0-0.7,0-1.3,0-1.9h0.9l0,1h0c0.4-0.7,1.1-1.1,2.1-1.1c1.4,0,2.5,1.2,2.5,3c0,2.1-1.3,3.1-2.6,3.1
			c-0.8,0-1.4-0.3-1.8-0.9h0v3.2h-1V570.7z M366.7,572.3c0,0.2,0,0.3,0,0.4c0.2,0.7,0.8,1.2,1.6,1.2c1.1,0,1.8-0.9,1.8-2.2
			c0-1.2-0.6-2.2-1.7-2.2c-0.7,0-1.4,0.5-1.6,1.3c0,0.1-0.1,0.3-0.1,0.4V572.3z"/>
		<path d="M372.5,570.6c0-0.7,0-1.3,0-1.8h0.9l0,1.1h0c0.3-0.8,0.9-1.3,1.6-1.3c0.1,0,0.2,0,0.3,0v1c-0.1,0-0.2,0-0.4,0
			c-0.7,0-1.3,0.6-1.4,1.4c0,0.1,0,0.3,0,0.5v3.1h-1V570.6z"/>
		<path d="M377.7,567.2c0,0.4-0.3,0.6-0.7,0.6c-0.4,0-0.6-0.3-0.6-0.6c0-0.4,0.3-0.7,0.7-0.7C377.4,566.5,377.7,566.8,377.7,567.2z
			 M376.5,574.6v-5.8h1.1v5.8H376.5z"/>
		<path d="M379.3,570.4c0-0.6,0-1.1,0-1.6h0.9l0.1,1h0c0.3-0.6,1-1.1,1.9-1.1c0.8,0,2.1,0.5,2.1,2.5v3.5h-1.1v-3.3
			c0-0.9-0.3-1.7-1.3-1.7c-0.7,0-1.2,0.5-1.4,1.1c0,0.1-0.1,0.3-0.1,0.5v3.5h-1.1V570.4z"/>
		<path d="M387.2,567.2v1.7h1.5v0.8h-1.5v3.1c0,0.7,0.2,1.1,0.8,1.1c0.3,0,0.5,0,0.6-0.1l0,0.8c-0.2,0.1-0.5,0.1-0.9,0.1
			c-0.5,0-0.9-0.2-1.1-0.4c-0.3-0.3-0.4-0.8-0.4-1.5v-3.2h-0.9v-0.8h0.9v-1.4L387.2,567.2z"/>
		<path d="M393.6,567.2c0,0.4-0.3,0.6-0.7,0.6c-0.4,0-0.6-0.3-0.6-0.6c0-0.4,0.3-0.7,0.7-0.7C393.3,566.5,393.6,566.8,393.6,567.2z
			 M392.4,574.6v-5.8h1.1v5.8H392.4z"/>
		<path d="M395.2,570.4c0-0.6,0-1.1,0-1.6h0.9l0.1,1h0c0.3-0.6,1-1.1,1.9-1.1c0.8,0,2.1,0.5,2.1,2.5v3.5h-1.1v-3.3
			c0-0.9-0.3-1.7-1.3-1.7c-0.7,0-1.2,0.5-1.4,1.1c0,0.1-0.1,0.3-0.1,0.5v3.5h-1.1V570.4z"/>
		<path d="M404.4,570.7c0-0.7,0-1.3,0-1.9h0.9l0,1h0c0.4-0.7,1.1-1.1,2.1-1.1c1.4,0,2.5,1.2,2.5,3c0,2.1-1.3,3.1-2.6,3.1
			c-0.8,0-1.4-0.3-1.8-0.9h0v3.2h-1V570.7z M405.5,572.3c0,0.2,0,0.3,0,0.4c0.2,0.7,0.8,1.2,1.6,1.2c1.1,0,1.8-0.9,1.8-2.2
			c0-1.2-0.6-2.2-1.7-2.2c-0.7,0-1.4,0.5-1.6,1.3c0,0.1-0.1,0.3-0.1,0.4V572.3z"/>
		<path d="M411.3,570.6c0-0.7,0-1.3,0-1.8h0.9l0,1.1h0c0.3-0.8,0.9-1.3,1.6-1.3c0.1,0,0.2,0,0.3,0v1c-0.1,0-0.2,0-0.4,0
			c-0.7,0-1.3,0.6-1.4,1.4c0,0.1,0,0.3,0,0.5v3.1h-1V570.6z"/>
		<path d="M420.3,571.7c0,2.1-1.5,3.1-2.9,3.1c-1.6,0-2.8-1.2-2.8-3c0-1.9,1.3-3.1,2.9-3.1C419.2,568.7,420.3,569.9,420.3,571.7z
			 M415.7,571.7c0,1.3,0.7,2.2,1.8,2.2c1,0,1.8-0.9,1.8-2.3c0-1-0.5-2.2-1.7-2.2C416.2,569.5,415.7,570.6,415.7,571.7z"/>
		<path d="M426.7,566.1v7c0,0.5,0,1.1,0,1.5h-0.9l0-1h0c-0.3,0.6-1,1.1-2,1.1c-1.4,0-2.5-1.2-2.5-3c0-1.9,1.2-3.1,2.6-3.1
			c0.9,0,1.5,0.4,1.8,0.9h0v-3.5H426.7z M425.6,571.2c0-0.1,0-0.3,0-0.4c-0.2-0.7-0.7-1.2-1.5-1.2c-1.1,0-1.7,1-1.7,2.2
			c0,1.2,0.6,2.1,1.7,2.1c0.7,0,1.4-0.5,1.5-1.3c0-0.1,0-0.3,0-0.5V571.2z"/>
		<path d="M433.3,573.1c0,0.6,0,1.1,0,1.6h-0.9l-0.1-0.9h0c-0.3,0.5-0.9,1.1-1.9,1.1c-0.9,0-2-0.5-2-2.5v-3.4h1.1v3.2
			c0,1.1,0.3,1.8,1.3,1.8c0.7,0,1.2-0.5,1.4-1c0.1-0.2,0.1-0.3,0.1-0.5v-3.6h1.1V573.1z"/>
		<path d="M439.2,574.4c-0.3,0.1-0.9,0.3-1.7,0.3c-1.8,0-2.9-1.2-2.9-3c0-1.8,1.2-3.1,3.1-3.1c0.6,0,1.2,0.2,1.5,0.3l-0.2,0.8
			c-0.3-0.1-0.6-0.3-1.2-0.3c-1.3,0-2.1,1-2.1,2.2c0,1.3,0.9,2.2,2,2.2c0.6,0,1-0.2,1.3-0.3L439.2,574.4z"/>
		<path d="M441.8,567.2v1.7h1.5v0.8h-1.5v3.1c0,0.7,0.2,1.1,0.8,1.1c0.3,0,0.5,0,0.6-0.1l0,0.8c-0.2,0.1-0.5,0.1-0.9,0.1
			c-0.5,0-0.9-0.2-1.1-0.4c-0.3-0.3-0.4-0.8-0.4-1.5v-3.2h-0.9v-0.8h0.9v-1.4L441.8,567.2z"/>
		<path d="M445.7,567.2c0,0.4-0.3,0.6-0.7,0.6c-0.4,0-0.6-0.3-0.6-0.6c0-0.4,0.3-0.7,0.7-0.7C445.5,566.5,445.7,566.8,445.7,567.2z
			 M444.5,574.6v-5.8h1.1v5.8H444.5z"/>
		<path d="M452.6,571.7c0,2.1-1.5,3.1-2.9,3.1c-1.6,0-2.8-1.2-2.8-3c0-1.9,1.3-3.1,2.9-3.1C451.5,568.7,452.6,569.9,452.6,571.7z
			 M448,571.7c0,1.3,0.7,2.2,1.8,2.2c1,0,1.8-0.9,1.8-2.3c0-1-0.5-2.2-1.7-2.2C448.5,569.5,448,570.6,448,571.7z"/>
		<path d="M453.9,570.4c0-0.6,0-1.1,0-1.6h0.9l0.1,1h0c0.3-0.6,1-1.1,1.9-1.1c0.8,0,2.1,0.5,2.1,2.5v3.5h-1.1v-3.3
			c0-0.9-0.3-1.7-1.3-1.7c-0.7,0-1.2,0.5-1.4,1.1c0,0.1-0.1,0.3-0.1,0.5v3.5h-1.1V570.4z"/>
		<path d="M464.3,567.2c0,0.4-0.3,0.6-0.7,0.6c-0.4,0-0.6-0.3-0.6-0.6c0-0.4,0.3-0.7,0.7-0.7C464.1,566.5,464.3,566.8,464.3,567.2z
			 M463.1,574.6v-5.8h1.1v5.8H463.1z"/>
		<path d="M465.8,573.6c0.3,0.2,0.9,0.4,1.4,0.4c0.8,0,1.1-0.4,1.1-0.9c0-0.5-0.3-0.8-1.1-1.1c-1-0.4-1.5-0.9-1.5-1.6
			c0-0.9,0.8-1.7,2-1.7c0.6,0,1.1,0.2,1.4,0.4l-0.3,0.8c-0.2-0.1-0.6-0.3-1.2-0.3c-0.6,0-1,0.4-1,0.8c0,0.5,0.3,0.7,1.1,1
			c1,0.4,1.5,0.9,1.5,1.8c0,1-0.8,1.7-2.2,1.7c-0.6,0-1.2-0.2-1.6-0.4L465.8,573.6z"/>
		<path d="M473.8,571.9c0,1.4,0.9,2,2,2c0.8,0,1.2-0.1,1.6-0.3l0.2,0.8c-0.4,0.2-1,0.4-1.9,0.4c-1.8,0-2.9-1.2-2.9-2.9
			c0-1.8,1-3.1,2.7-3.1c1.9,0,2.4,1.7,2.4,2.7c0,0.2,0,0.4,0,0.5H473.8z M476.9,571.2c0-0.7-0.3-1.7-1.5-1.7c-1.1,0-1.5,1-1.6,1.7
			H476.9z"/>
		<path d="M483.2,573.7L483.2,573.7c-0.3,0.6-1,1-1.9,1c-1.4,0-2.5-1.2-2.5-2.9c0-2.2,1.4-3.1,2.6-3.1c0.9,0,1.5,0.4,1.8,1h0l0-0.9
			h1c0,0.5,0,1,0,1.6v6.6h-1.1V573.7z M483.2,571.2c0-0.1,0-0.3,0-0.4c-0.2-0.6-0.7-1.2-1.5-1.2c-1.1,0-1.8,0.9-1.8,2.2
			c0,1.2,0.6,2.2,1.7,2.2c0.7,0,1.3-0.4,1.5-1.2c0-0.1,0.1-0.3,0.1-0.5V571.2z"/>
		<path d="M490.9,573.1c0,0.6,0,1.1,0,1.6H490l-0.1-0.9h0c-0.3,0.5-0.9,1.1-1.9,1.1c-0.9,0-2-0.5-2-2.5v-3.4h1.1v3.2
			c0,1.1,0.3,1.8,1.3,1.8c0.7,0,1.2-0.5,1.4-1c0.1-0.2,0.1-0.3,0.1-0.5v-3.6h1.1V573.1z"/>
		<path d="M493.8,567.2c0,0.4-0.3,0.6-0.7,0.6c-0.4,0-0.6-0.3-0.6-0.6c0-0.4,0.3-0.7,0.7-0.7C493.5,566.5,493.8,566.8,493.8,567.2z
			 M492.6,574.6v-5.8h1.1v5.8H492.6z"/>
		<path d="M495.8,568.8l1.1,3.3c0.2,0.5,0.3,1,0.5,1.5h0c0.1-0.5,0.3-1,0.5-1.5l1.1-3.3h1.1l-2.3,5.8h-1l-2.2-5.8H495.8z"/>
		<path d="M504.4,574.6l-0.1-0.7h0c-0.3,0.5-0.9,0.9-1.8,0.9c-1.2,0-1.8-0.8-1.8-1.7c0-1.4,1.2-2.2,3.5-2.2v-0.1
			c0-0.5-0.1-1.3-1.3-1.3c-0.5,0-1.1,0.2-1.5,0.4l-0.2-0.7c0.5-0.3,1.2-0.5,1.9-0.5c1.8,0,2.2,1.2,2.2,2.4v2.2c0,0.5,0,1,0.1,1.4
			H504.4z M504.2,571.7c-1.2,0-2.5,0.2-2.5,1.3c0,0.7,0.5,1,1,1c0.8,0,1.2-0.5,1.4-1c0-0.1,0.1-0.2,0.1-0.3V571.7z"/>
		<path d="M506.9,566.1h1.1v8.5h-1.1V566.1z"/>
		<path d="M510.3,571.9c0,1.4,0.9,2,2,2c0.8,0,1.2-0.1,1.6-0.3l0.2,0.8c-0.4,0.2-1,0.4-1.9,0.4c-1.8,0-2.9-1.2-2.9-2.9
			c0-1.8,1-3.1,2.7-3.1c1.9,0,2.4,1.7,2.4,2.7c0,0.2,0,0.4,0,0.5H510.3z M513.4,571.2c0-0.7-0.3-1.7-1.5-1.7c-1.1,0-1.5,1-1.6,1.7
			H513.4z"/>
		<path d="M515.8,570.4c0-0.6,0-1.1,0-1.6h0.9l0.1,1h0c0.3-0.6,1-1.1,1.9-1.1c0.8,0,2.1,0.5,2.1,2.5v3.5h-1.1v-3.3
			c0-0.9-0.3-1.7-1.3-1.7c-0.7,0-1.2,0.5-1.4,1.1c0,0.1-0.1,0.3-0.1,0.5v3.5h-1.1V570.4z"/>
		<path d="M523.7,567.2v1.7h1.5v0.8h-1.5v3.1c0,0.7,0.2,1.1,0.8,1.1c0.3,0,0.5,0,0.6-0.1l0,0.8c-0.2,0.1-0.5,0.1-0.9,0.1
			c-0.5,0-0.9-0.2-1.1-0.4c-0.3-0.3-0.4-0.8-0.4-1.5v-3.2h-0.9v-0.8h0.9v-1.4L523.7,567.2z"/>
		<path d="M530.2,567.2v1.7h1.5v0.8h-1.5v3.1c0,0.7,0.2,1.1,0.8,1.1c0.3,0,0.5,0,0.6-0.1l0,0.8c-0.2,0.1-0.5,0.1-0.9,0.1
			c-0.5,0-0.9-0.2-1.1-0.4c-0.3-0.3-0.4-0.8-0.4-1.5v-3.2h-0.9v-0.8h0.9v-1.4L530.2,567.2z"/>
		<path d="M538.1,571.7c0,2.1-1.5,3.1-2.9,3.1c-1.6,0-2.8-1.2-2.8-3c0-1.9,1.3-3.1,2.9-3.1C536.9,568.7,538.1,569.9,538.1,571.7z
			 M533.5,571.7c0,1.3,0.7,2.2,1.8,2.2c1,0,1.8-0.9,1.8-2.3c0-1-0.5-2.2-1.7-2.2C534,569.5,533.5,570.6,533.5,571.7z"/>
		<path d="M543.3,572.1l-0.8,2.5h-1.1l2.7-8.1h1.3l2.8,8.1H547l-0.9-2.5H543.3z M545.9,571.3l-0.8-2.3c-0.2-0.5-0.3-1-0.4-1.5h0
			c-0.1,0.5-0.3,1-0.4,1.5l-0.8,2.3H545.9z"/>
		<path d="M554,573.1c0,0.6,0,1.1,0,1.6h-0.9l-0.1-0.9h0c-0.3,0.5-0.9,1.1-1.9,1.1c-0.9,0-2-0.5-2-2.5v-3.4h1.1v3.2
			c0,1.1,0.3,1.8,1.3,1.8c0.7,0,1.2-0.5,1.4-1c0.1-0.2,0.1-0.3,0.1-0.5v-3.6h1.1V573.1z"/>
		<path d="M555.6,573.6c0.3,0.2,0.9,0.4,1.4,0.4c0.8,0,1.1-0.4,1.1-0.9c0-0.5-0.3-0.8-1.1-1.1c-1-0.4-1.5-0.9-1.5-1.6
			c0-0.9,0.8-1.7,2-1.7c0.6,0,1.1,0.2,1.4,0.4l-0.3,0.8c-0.2-0.1-0.6-0.3-1.2-0.3c-0.6,0-1,0.4-1,0.8c0,0.5,0.3,0.7,1.1,1
			c1,0.4,1.5,0.9,1.5,1.8c0,1-0.8,1.7-2.2,1.7c-0.6,0-1.2-0.2-1.6-0.4L555.6,573.6z"/>
		<path d="M561.8,567.2v1.7h1.5v0.8h-1.5v3.1c0,0.7,0.2,1.1,0.8,1.1c0.3,0,0.5,0,0.6-0.1l0,0.8c-0.2,0.1-0.5,0.1-0.9,0.1
			c-0.5,0-0.9-0.2-1.1-0.4c-0.3-0.3-0.4-0.8-0.4-1.5v-3.2h-0.9v-0.8h0.9v-1.4L561.8,567.2z"/>
		<path d="M564.5,570.6c0-0.7,0-1.3,0-1.8h0.9l0,1.1h0c0.3-0.8,0.9-1.3,1.6-1.3c0.1,0,0.2,0,0.3,0v1c-0.1,0-0.2,0-0.4,0
			c-0.7,0-1.3,0.6-1.4,1.4c0,0.1,0,0.3,0,0.5v3.1h-1V570.6z"/>
		<path d="M569.6,567.2c0,0.4-0.3,0.6-0.7,0.6c-0.4,0-0.6-0.3-0.6-0.6c0-0.4,0.3-0.7,0.7-0.7C569.4,566.5,569.6,566.8,569.6,567.2z
			 M568.4,574.6v-5.8h1.1v5.8H568.4z"/>
		<path d="M574.5,574.6l-0.1-0.7h0c-0.3,0.5-0.9,0.9-1.8,0.9c-1.2,0-1.8-0.8-1.8-1.7c0-1.4,1.2-2.2,3.5-2.2v-0.1
			c0-0.5-0.1-1.3-1.3-1.3c-0.5,0-1.1,0.2-1.5,0.4l-0.2-0.7c0.5-0.3,1.2-0.5,1.9-0.5c1.8,0,2.2,1.2,2.2,2.4v2.2c0,0.5,0,1,0.1,1.4
			H574.5z M574.3,571.7c-1.2,0-2.5,0.2-2.5,1.3c0,0.7,0.5,1,1,1c0.8,0,1.2-0.5,1.4-1c0-0.1,0.1-0.2,0.1-0.3V571.7z"/>
		<path d="M577.7,566.4l-0.2,2.9h-0.6l-0.2-2.9H577.7z"/>
		<path d="M579,573.6c0.3,0.2,0.9,0.4,1.4,0.4c0.8,0,1.1-0.4,1.1-0.9c0-0.5-0.3-0.8-1.1-1.1c-1-0.4-1.5-0.9-1.5-1.6
			c0-0.9,0.8-1.7,2-1.7c0.6,0,1.1,0.2,1.4,0.4l-0.3,0.8c-0.2-0.1-0.6-0.3-1.2-0.3c-0.6,0-1,0.4-1,0.8c0,0.5,0.3,0.7,1.1,1
			c1,0.4,1.5,0.9,1.5,1.8c0,1-0.8,1.7-2.2,1.7c-0.6,0-1.2-0.2-1.6-0.4L579,573.6z"/>
	</g>
</g>
</svg>
