<svg id="ba46f21e-8e7c-4746-ba6b-8aa69c9d7ec9" data-name="Calque 1" xmlns="http://www.w3.org/2000/svg" xmlns:xlink="http://www.w3.org/1999/xlink" width="1830" height="1024" viewBox="0 0 1830 1024">
  <defs>
    <pattern id="d2cd9e44-884a-4630-95f5-751728194a63" data-name="Nouvelle nuance de motif 39" width="73" height="58" patternTransform="translate(-687 6632) scale(4.58)" patternUnits="userSpaceOnUse" viewBox="0 0 73 58">
      <rect width="73" height="58" fill="none"/>
      <path d="M0,0H0" fill="none" stroke="#ff754c" stroke-linecap="round" stroke-linejoin="round" stroke-width="2"/>
      <g>
        <path d="M0,0H0" fill="none" stroke="#ff754c" stroke-linecap="round" stroke-linejoin="round" stroke-width="2"/>
        <path d="M0,0H0" fill="none" stroke="#ff754c" stroke-linecap="round" stroke-linejoin="round" stroke-width="2"/>
        <path d="M0,0H0" fill="none" stroke="#ff754c" stroke-linecap="round" stroke-linejoin="round" stroke-width="2"/>
        <path d="M0,0H0" fill="none" stroke="#ff754c" stroke-linecap="round" stroke-linejoin="round" stroke-width="2"/>
        <path d="M0,0H0" fill="none" stroke="#ff754c" stroke-linecap="round" stroke-linejoin="round" stroke-width="2"/>
        <path d="M0,0H0" fill="none" stroke="#ff754c" stroke-linecap="round" stroke-linejoin="round" stroke-width="2"/>
        <path d="M0,0H0" fill="none" stroke="#ff754c" stroke-linecap="round" stroke-linejoin="round" stroke-width="2"/>
        <path d="M0,0H0" fill="none" stroke="#ff754c" stroke-linecap="round" stroke-linejoin="round" stroke-width="2"/>
        <path d="M0,0H0" fill="none" stroke="#ff754c" stroke-linecap="round" stroke-linejoin="round" stroke-width="2"/>
        <path d="M0,0H0" fill="none" stroke="#ff754c" stroke-linecap="round" stroke-linejoin="round" stroke-width="2"/>
        <path d="M0,0H0" fill="none" stroke="#ff754c" stroke-linecap="round" stroke-linejoin="round" stroke-width="2"/>
        <path d="M0,0H0" fill="none" stroke="#ff754c" stroke-linecap="round" stroke-linejoin="round" stroke-width="2"/>
        <path d="M0,0H0" fill="none" stroke="#ff754c" stroke-linecap="round" stroke-linejoin="round" stroke-width="2"/>
        <path d="M0,0H0" fill="none" stroke="#ff754c" stroke-linecap="round" stroke-linejoin="round" stroke-width="2"/>
        <path d="M0,0H0" fill="none" stroke="#ff754c" stroke-linecap="round" stroke-linejoin="round" stroke-width="2"/>
        <path d="M0,0H0" fill="none" stroke="#ff754c" stroke-linecap="round" stroke-linejoin="round" stroke-width="2"/>
      </g>
      <path d="M0,0H0" fill="none" stroke="#ff754c" stroke-linecap="round" stroke-linejoin="round" stroke-width="2"/>
      <path d="M0,0H0" fill="none" stroke="#ff754c" stroke-linecap="round" stroke-linejoin="round" stroke-width="2"/>
      <g>
        <path d="M0,0H0" fill="none" stroke="#ff754c" stroke-linecap="round" stroke-linejoin="round" stroke-width="2"/>
        <path d="M0,0H0" fill="none" stroke="#ff754c" stroke-linecap="round" stroke-linejoin="round" stroke-width="2"/>
        <path d="M0,0H0" fill="none" stroke="#ff754c" stroke-linecap="round" stroke-linejoin="round" stroke-width="2"/>
        <path d="M0,0H0" fill="none" stroke="#ff754c" stroke-linecap="round" stroke-linejoin="round" stroke-width="2"/>
        <path d="M0,0H0" fill="none" stroke="#ff754c" stroke-linecap="round" stroke-linejoin="round" stroke-width="2"/>
        <path d="M0,0H0" fill="none" stroke="#ff754c" stroke-linecap="round" stroke-linejoin="round" stroke-width="2"/>
        <path d="M0,0H0" fill="none" stroke="#ff754c" stroke-linecap="round" stroke-linejoin="round" stroke-width="2"/>
        <path d="M0,0H0" fill="none" stroke="#ff754c" stroke-linecap="round" stroke-linejoin="round" stroke-width="2"/>
        <path d="M0,0H0" fill="none" stroke="#ff754c" stroke-linecap="round" stroke-linejoin="round" stroke-width="2"/>
        <path d="M0,0H0" fill="none" stroke="#ff754c" stroke-linecap="round" stroke-linejoin="round" stroke-width="2"/>
        <path d="M0,0H0" fill="none" stroke="#ff754c" stroke-linecap="round" stroke-linejoin="round" stroke-width="2"/>
        <path d="M0,0H0" fill="none" stroke="#ff754c" stroke-linecap="round" stroke-linejoin="round" stroke-width="2"/>
        <path d="M0,0H0" fill="none" stroke="#ff754c" stroke-linecap="round" stroke-linejoin="round" stroke-width="2"/>
        <path d="M0,0H0" fill="none" stroke="#ff754c" stroke-linecap="round" stroke-linejoin="round" stroke-width="2"/>
        <path d="M0,0H0" fill="none" stroke="#ff754c" stroke-linecap="round" stroke-linejoin="round" stroke-width="2"/>
        <path d="M0,0H0" fill="none" stroke="#ff754c" stroke-linecap="round" stroke-linejoin="round" stroke-width="2"/>
      </g>
      <path d="M0,0H0" fill="none" stroke="#ff754c" stroke-linecap="round" stroke-linejoin="round" stroke-width="2"/>
      <path d="M0,0H0" fill="none" stroke="#ff754c" stroke-linecap="round" stroke-linejoin="round" stroke-width="2"/>
      <g>
        <path d="M0,0H0" fill="none" stroke="#ff754c" stroke-linecap="round" stroke-linejoin="round" stroke-width="2"/>
        <path d="M0,0H0" fill="none" stroke="#ff754c" stroke-linecap="round" stroke-linejoin="round" stroke-width="2"/>
        <path d="M0,0H0" fill="none" stroke="#ff754c" stroke-linecap="round" stroke-linejoin="round" stroke-width="2"/>
        <path d="M0,0H0" fill="none" stroke="#ff754c" stroke-linecap="round" stroke-linejoin="round" stroke-width="2"/>
        <path d="M0,0H0" fill="none" stroke="#ff754c" stroke-linecap="round" stroke-linejoin="round" stroke-width="2"/>
        <path d="M0,0H0" fill="none" stroke="#ff754c" stroke-linecap="round" stroke-linejoin="round" stroke-width="2"/>
        <path d="M0,0H0" fill="none" stroke="#ff754c" stroke-linecap="round" stroke-linejoin="round" stroke-width="2"/>
        <path d="M0,0H0" fill="none" stroke="#ff754c" stroke-linecap="round" stroke-linejoin="round" stroke-width="2"/>
        <path d="M0,0H0" fill="none" stroke="#ff754c" stroke-linecap="round" stroke-linejoin="round" stroke-width="2"/>
        <path d="M0,0H0" fill="none" stroke="#ff754c" stroke-linecap="round" stroke-linejoin="round" stroke-width="2"/>
        <path d="M0,0H0" fill="none" stroke="#ff754c" stroke-linecap="round" stroke-linejoin="round" stroke-width="2"/>
        <path d="M0,0H0" fill="none" stroke="#ff754c" stroke-linecap="round" stroke-linejoin="round" stroke-width="2"/>
      </g>
      <path d="M0,0H0" fill="none" stroke="#ff754c" stroke-linecap="round" stroke-linejoin="round" stroke-width="2"/>
    </pattern>
    <pattern id="5dcc52fc-d828-4023-add4-c9434ead0e79" data-name="Nouvelle nuance de motif 38" width="67" height="31.19" patternTransform="translate(-281 6632) scale(4.58)" patternUnits="userSpaceOnUse" viewBox="0 0 67 31">
      <rect width="67" height="31.19" fill="none"/>
      <path d="M0,0H0" fill="none" stroke="#ff754c" stroke-linecap="round" stroke-linejoin="round" stroke-width="2"/>
      <g>
        <path d="M0,0H0" fill="none" stroke="#ff754c" stroke-linecap="round" stroke-linejoin="round" stroke-width="2"/>
        <path d="M0,0H0" fill="none" stroke="#ff754c" stroke-linecap="round" stroke-linejoin="round" stroke-width="2"/>
        <path d="M0,0H0" fill="none" stroke="#ff754c" stroke-linecap="round" stroke-linejoin="round" stroke-width="2"/>
        <path d="M0,0H0" fill="none" stroke="#ff754c" stroke-linecap="round" stroke-linejoin="round" stroke-width="2"/>
        <path d="M0,0H0" fill="none" stroke="#ff754c" stroke-linecap="round" stroke-linejoin="round" stroke-width="2"/>
        <path d="M0,0H0" fill="none" stroke="#ff754c" stroke-linecap="round" stroke-linejoin="round" stroke-width="2"/>
      </g>
      <path d="M0,0H0" fill="none" stroke="#ff754c" stroke-linecap="round" stroke-linejoin="round" stroke-width="2"/>
      <g>
        <path d="M0,0H0" fill="none" stroke="#ff754c" stroke-linecap="round" stroke-linejoin="round" stroke-width="2"/>
        <path d="M0,0H0" fill="none" stroke="#ff754c" stroke-linecap="round" stroke-linejoin="round" stroke-width="2"/>
        <path d="M0,0H0" fill="none" stroke="#ff754c" stroke-linecap="round" stroke-linejoin="round" stroke-width="2"/>
        <path d="M0,0H0" fill="none" stroke="#ff754c" stroke-linecap="round" stroke-linejoin="round" stroke-width="2"/>
        <path d="M0,0H0" fill="none" stroke="#ff754c" stroke-linecap="round" stroke-linejoin="round" stroke-width="2"/>
        <path d="M0,0H0" fill="none" stroke="#ff754c" stroke-linecap="round" stroke-linejoin="round" stroke-width="2"/>
        <path d="M0,0H0" fill="none" stroke="#ff754c" stroke-linecap="round" stroke-linejoin="round" stroke-width="2"/>
        <g>
          <path d="M0,0H0" fill="none" stroke="#ff754c" stroke-linecap="round" stroke-linejoin="round" stroke-width="2"/>
          <path d="M0,0H0" fill="none" stroke="#ff754c" stroke-linecap="round" stroke-linejoin="round" stroke-width="2"/>
          <path d="M0,0H0" fill="none" stroke="#ff754c" stroke-linecap="round" stroke-linejoin="round" stroke-width="2"/>
        </g>
      </g>
      <path d="M0,0H0" fill="none" stroke="#ff754c" stroke-linecap="round" stroke-linejoin="round" stroke-width="2"/>
      <path d="M0,0H0" fill="none" stroke="#ff754c" stroke-linecap="round" stroke-linejoin="round" stroke-width="2"/>
      <g>
        <path d="M0,0H0" fill="none" stroke="#ff754c" stroke-linecap="round" stroke-linejoin="round" stroke-width="2"/>
        <path d="M0,0H0" fill="none" stroke="#ff754c" stroke-linecap="round" stroke-linejoin="round" stroke-width="2"/>
        <path d="M0,0H0" fill="none" stroke="#ff754c" stroke-linecap="round" stroke-linejoin="round" stroke-width="2"/>
        <path d="M0,0H0" fill="none" stroke="#ff754c" stroke-linecap="round" stroke-linejoin="round" stroke-width="2"/>
        <path d="M0,0H0" fill="none" stroke="#ff754c" stroke-linecap="round" stroke-linejoin="round" stroke-width="2"/>
        <path d="M0,0H0" fill="none" stroke="#ff754c" stroke-linecap="round" stroke-linejoin="round" stroke-width="2"/>
        <g>
          <path d="M0,0H0" fill="none" stroke="#ff754c" stroke-linecap="round" stroke-linejoin="round" stroke-width="2"/>
          <path d="M0,0H0" fill="none" stroke="#ff754c" stroke-linecap="round" stroke-linejoin="round" stroke-width="2"/>
        </g>
      </g>
      <path d="M0,0H0" fill="none" stroke="#ff754c" stroke-linecap="round" stroke-linejoin="round" stroke-width="2"/>
    </pattern>
    <pattern id="1851cf96-8868-43b3-a043-d0de25564ba8" data-name="Nouvelle nuance de motif 37" width="64" height="69" patternTransform="translate(-4941 3993) rotate(45) scale(4.58)" patternUnits="userSpaceOnUse" viewBox="0 0 64 69">
      <rect width="64" height="69" fill="none"/>
      <path d="M0,0H0" fill="none" stroke="#ff754c" stroke-linecap="round" stroke-linejoin="round" stroke-width="2"/>
      <path d="M0,0H0" fill="none" stroke="#ff754c" stroke-linecap="round" stroke-linejoin="round" stroke-width="2"/>
      <path d="M0,0H0" fill="none" stroke="#ff754c" stroke-linecap="round" stroke-linejoin="round" stroke-width="2"/>
      <path d="M0,0H0" fill="none" stroke="#ff754c" stroke-linecap="round" stroke-linejoin="round" stroke-width="2"/>
      <path d="M0,0H0" fill="none" stroke="#ff754c" stroke-linecap="round" stroke-linejoin="round" stroke-width="2"/>
      <path d="M0,0H0" fill="none" stroke="#ff754c" stroke-linecap="round" stroke-linejoin="round" stroke-width="2"/>
      <g>
        <g>
          <path d="M0,0H0" fill="none" stroke="#ff754c" stroke-linecap="round" stroke-linejoin="round" stroke-width="2"/>
          <path d="M0,0H0" fill="none" stroke="#ff754c" stroke-linecap="round" stroke-linejoin="round" stroke-width="2"/>
          <polyline points="54 12 59 15 60 10" fill="none" stroke="#ff754c" stroke-linecap="round" stroke-linejoin="round" stroke-width="2"/>
        </g>
        <path d="M0,0H0" fill="none" stroke="#ff754c" stroke-linecap="round" stroke-linejoin="round" stroke-width="2"/>
      </g>
      <g>
        <g>
          <path d="M0,0H0" fill="none" stroke="#ff754c" stroke-linecap="round" stroke-linejoin="round" stroke-width="2"/>
          <path d="M0,0H0" fill="none" stroke="#ff754c" stroke-linecap="round" stroke-linejoin="round" stroke-width="2"/>
          <polyline points="38 12 43 15 44 10" fill="none" stroke="#ff754c" stroke-linecap="round" stroke-linejoin="round" stroke-width="2"/>
        </g>
        <g>
          <path d="M0,0H0" fill="none" stroke="#ff754c" stroke-linecap="round" stroke-linejoin="round" stroke-width="2"/>
          <polyline points="64 36 69 38 70 33" fill="none" stroke="#ff754c" stroke-linecap="round" stroke-linejoin="round" stroke-width="2"/>
        </g>
      </g>
      <g>
        <g>
          <path d="M0,0H0" fill="none" stroke="#ff754c" stroke-linecap="round" stroke-linejoin="round" stroke-width="2"/>
          <path d="M0,0H0" fill="none" stroke="#ff754c" stroke-linecap="round" stroke-linejoin="round" stroke-width="2"/>
          <polyline points="22 12 27 15 28 10" fill="none" stroke="#ff754c" stroke-linecap="round" stroke-linejoin="round" stroke-width="2"/>
        </g>
        <g>
          <path d="M0,0H0" fill="none" stroke="#ff754c" stroke-linecap="round" stroke-linejoin="round" stroke-width="2"/>
          <path d="M0,0H0" fill="none" stroke="#ff754c" stroke-linecap="round" stroke-linejoin="round" stroke-width="2"/>
          <polyline points="48 36 53 38 54 33" fill="none" stroke="#ff754c" stroke-linecap="round" stroke-linejoin="round" stroke-width="2"/>
        </g>
        <path d="M0,0H0" fill="none" stroke="#ff754c" stroke-linecap="round" stroke-linejoin="round" stroke-width="2"/>
      </g>
      <g>
        <g>
          <path d="M0,0H0" fill="none" stroke="#ff754c" stroke-linecap="round" stroke-linejoin="round" stroke-width="2"/>
          <path d="M0,0H0" fill="none" stroke="#ff754c" stroke-linecap="round" stroke-linejoin="round" stroke-width="2"/>
          <polyline points="6 12 11 15 12 10" fill="none" stroke="#ff754c" stroke-linecap="round" stroke-linejoin="round" stroke-width="2"/>
        </g>
        <g>
          <path d="M0,0H0" fill="none" stroke="#ff754c" stroke-linecap="round" stroke-linejoin="round" stroke-width="2"/>
          <path d="M0,0H0" fill="none" stroke="#ff754c" stroke-linecap="round" stroke-linejoin="round" stroke-width="2"/>
          <polyline points="32 36 37 38 38 33" fill="none" stroke="#ff754c" stroke-linecap="round" stroke-linejoin="round" stroke-width="2"/>
        </g>
        <g>
          <path d="M0,0H0" fill="none" stroke="#ff754c" stroke-linecap="round" stroke-linejoin="round" stroke-width="2"/>
          <path d="M0,0H0" fill="none" stroke="#ff754c" stroke-linecap="round" stroke-linejoin="round" stroke-width="2"/>
          <polyline points="59 59 63 61 64 56" fill="none" stroke="#ff754c" stroke-linecap="round" stroke-linejoin="round" stroke-width="2"/>
        </g>
      </g>
      <g>
        <path d="M0,0H0" fill="none" stroke="#ff754c" stroke-linecap="round" stroke-linejoin="round" stroke-width="2"/>
        <g>
          <path d="M0,0H0" fill="none" stroke="#ff754c" stroke-linecap="round" stroke-linejoin="round" stroke-width="2"/>
          <path d="M0,0H0" fill="none" stroke="#ff754c" stroke-linecap="round" stroke-linejoin="round" stroke-width="2"/>
          <polyline points="16 36 21 38 22 33" fill="none" stroke="#ff754c" stroke-linecap="round" stroke-linejoin="round" stroke-width="2"/>
        </g>
        <g>
          <path d="M0,0H0" fill="none" stroke="#ff754c" stroke-linecap="round" stroke-linejoin="round" stroke-width="2"/>
          <path d="M0,0H0" fill="none" stroke="#ff754c" stroke-linecap="round" stroke-linejoin="round" stroke-width="2"/>
          <polyline points="43 59 47 61 48 56" fill="none" stroke="#ff754c" stroke-linecap="round" stroke-linejoin="round" stroke-width="2"/>
        </g>
      </g>
      <g>
        <g>
          <path d="M0,0H0" fill="none" stroke="#ff754c" stroke-linecap="round" stroke-linejoin="round" stroke-width="2"/>
          <path d="M0,0H0" fill="none" stroke="#ff754c" stroke-linecap="round" stroke-linejoin="round" stroke-width="2"/>
          <polyline points="0 36 5 38 6 33" fill="none" stroke="#ff754c" stroke-linecap="round" stroke-linejoin="round" stroke-width="2"/>
        </g>
        <g>
          <path d="M0,0H0" fill="none" stroke="#ff754c" stroke-linecap="round" stroke-linejoin="round" stroke-width="2"/>
          <path d="M0,0H0" fill="none" stroke="#ff754c" stroke-linecap="round" stroke-linejoin="round" stroke-width="2"/>
          <polyline points="27 59 31 61 32 56" fill="none" stroke="#ff754c" stroke-linecap="round" stroke-linejoin="round" stroke-width="2"/>
        </g>
      </g>
      <g>
        <path d="M0,0H0" fill="none" stroke="#ff754c" stroke-linecap="round" stroke-linejoin="round" stroke-width="2"/>
        <path d="M0,0H0" fill="none" stroke="#ff754c" stroke-linecap="round" stroke-linejoin="round" stroke-width="2"/>
        <polyline points="11 59 15 61 16 56" fill="none" stroke="#ff754c" stroke-linecap="round" stroke-linejoin="round" stroke-width="2"/>
      </g>
      <g>
        <path d="M0,0H0" fill="none" stroke="#ff754c" stroke-linecap="round" stroke-linejoin="round" stroke-width="2"/>
        <polyline points="-5 59 -1 61 0 56" fill="none" stroke="#ff754c" stroke-linecap="round" stroke-linejoin="round" stroke-width="2"/>
      </g>
      <path d="M0,0H0" fill="none" stroke="#ff754c" stroke-linecap="round" stroke-linejoin="round" stroke-width="2"/>
      <path d="M0,0H0" fill="none" stroke="#ff754c" stroke-linecap="round" stroke-linejoin="round" stroke-width="2"/>
      <path d="M0,0H0" fill="none" stroke="#ff754c" stroke-linecap="round" stroke-linejoin="round" stroke-width="2"/>
      <path d="M0,0H0" fill="none" stroke="#ff754c" stroke-linecap="round" stroke-linejoin="round" stroke-width="2"/>
      <path d="M0,0H0" fill="none" stroke="#ff754c" stroke-linecap="round" stroke-linejoin="round" stroke-width="2"/>
    </pattern>
    <pattern id="ac3b88a7-13f5-4470-b12c-ddaf8c4ac028" data-name="Nouvelle nuance de motif 40" width="47" height="32" patternTransform="translate(-4832 4074) rotate(45) scale(4.58)" patternUnits="userSpaceOnUse" viewBox="0 0 47 32">
      <rect width="47" height="32" fill="none"/>
      <g>
        <line x1="42" y1="32" x2="4" y2="32" fill="none" stroke="#ff754c" stroke-linecap="round" stroke-linejoin="round" stroke-width="3"/>
        <polyline points="39 35 43 32 39 29" fill="none" stroke="#ff754c" stroke-linecap="round" stroke-linejoin="round" stroke-width="3"/>
      </g>
      <line x1="65" y1="24" x2="28" y2="24" fill="none" stroke="#ff754c" stroke-linecap="round" stroke-linejoin="round" stroke-width="3"/>
      <g>
        <line x1="18" y1="24" x2="-19" y2="24" fill="none" stroke="#ff754c" stroke-linecap="round" stroke-linejoin="round" stroke-width="3"/>
        <polyline points="16 27 19 24 16 21" fill="none" stroke="#ff754c" stroke-linecap="round" stroke-linejoin="round" stroke-width="3"/>
      </g>
      <g>
        <line x1="42" y1="16" x2="4" y2="16" fill="none" stroke="#ff754c" stroke-linecap="round" stroke-linejoin="round" stroke-width="3"/>
        <polyline points="39 19 43 16 39 13" fill="none" stroke="#ff754c" stroke-linecap="round" stroke-linejoin="round" stroke-width="3"/>
      </g>
      <line x1="65" y1="8" x2="28" y2="8" fill="none" stroke="#ff754c" stroke-linecap="round" stroke-linejoin="round" stroke-width="3"/>
      <g>
        <line x1="18" y1="8" x2="-19" y2="8" fill="none" stroke="#ff754c" stroke-linecap="round" stroke-linejoin="round" stroke-width="3"/>
        <polyline points="16 11 19 8 16 5" fill="none" stroke="#ff754c" stroke-linecap="round" stroke-linejoin="round" stroke-width="3"/>
      </g>
      <g>
        <line x1="42" x2="4" fill="none" stroke="#ff754c" stroke-linecap="round" stroke-linejoin="round" stroke-width="3"/>
        <polyline points="39 3 43 0 39 -3" fill="none" stroke="#ff754c" stroke-linecap="round" stroke-linejoin="round" stroke-width="3"/>
      </g>
    </pattern>
    <pattern id="8588430c-a4dd-4193-b6d0-371b36e94473" data-name="Nouvelle nuance de motif 41" width="39" height="34" patternTransform="translate(-5000 4414) rotate(45) scale(4.58)" patternUnits="userSpaceOnUse" viewBox="0 0 39 34">
      <rect width="39" height="34" fill="none"/>
      <g>
        <line x1="30" y1="30" x2="39" y2="37" fill="none" stroke="#ff754c" stroke-linecap="round" stroke-linejoin="round" stroke-width="2"/>
        <line x1="40" y1="37" x2="40" y2="22" fill="none" stroke="#ff754c" stroke-linecap="round" stroke-linejoin="round" stroke-width="2"/>
        <polyline points="38 23 40 21 42 23" fill="none" stroke="#ff754c" stroke-linecap="round" stroke-linejoin="round" stroke-width="2"/>
        <polyline points="30 32 29 29 31 29" fill="none" stroke="#ff754c" stroke-linecap="round" stroke-linejoin="round" stroke-width="2"/>
      </g>
      <g>
        <line x1="-9" y1="30" y2="37" fill="none" stroke="#ff754c" stroke-linecap="round" stroke-linejoin="round" stroke-width="2"/>
        <line x1="1" y1="37" x2="1" y2="22" fill="none" stroke="#ff754c" stroke-linecap="round" stroke-linejoin="round" stroke-width="2"/>
        <line x1="13" y1="31" x2="1" y2="37" fill="none" stroke="#ff754c" stroke-linecap="round" stroke-linejoin="round" stroke-width="2"/>
        <polyline points="12 30 14 30 13 33" fill="none" stroke="#ff754c" stroke-linecap="round" stroke-linejoin="round" stroke-width="2"/>
        <polyline points="-1 23 1 21 3 23" fill="none" stroke="#ff754c" stroke-linecap="round" stroke-linejoin="round" stroke-width="2"/>
      </g>
      <g>
        <line x1="10" y1="13" x2="20" y2="20" fill="none" stroke="#ff754c" stroke-linecap="round" stroke-linejoin="round" stroke-width="2"/>
        <line x1="20" y1="20" x2="20" y2="5" fill="none" stroke="#ff754c" stroke-linecap="round" stroke-linejoin="round" stroke-width="2"/>
        <line x1="20" y1="20" x2="6" y2="27" fill="none" stroke="#ff754c" stroke-linecap="round" stroke-linejoin="round" stroke-width="2"/>
        <line x1="20" y1="20" x2="24" y2="29" fill="none" stroke="#ff754c" stroke-linecap="round" stroke-linejoin="round" stroke-width="2"/>
        <line x1="33" y1="14" x2="21" y2="20" fill="none" stroke="#ff754c" stroke-linecap="round" stroke-linejoin="round" stroke-width="2"/>
        <polyline points="31 13 34 13 33 16" fill="none" stroke="#ff754c" stroke-linecap="round" stroke-linejoin="round" stroke-width="2"/>
        <polyline points="19 6 20 4 22 6" fill="none" stroke="#ff754c" stroke-linecap="round" stroke-linejoin="round" stroke-width="2"/>
        <polyline points="10 15 9 12 12 12" fill="none" stroke="#ff754c" stroke-linecap="round" stroke-linejoin="round" stroke-width="2"/>
        <polyline points="8 28 5 28 6 25" fill="none" stroke="#ff754c" stroke-linecap="round" stroke-linejoin="round" stroke-width="2"/>
        <polyline points="25 27 24 30 22 29" fill="none" stroke="#ff754c" stroke-linecap="round" stroke-linejoin="round" stroke-width="2"/>
      </g>
      <g>
        <line x1="30" y1="-4" x2="39" y2="3" fill="none" stroke="#ff754c" stroke-linecap="round" stroke-linejoin="round" stroke-width="2"/>
        <line x1="40" y1="3" x2="40" y2="-12" fill="none" stroke="#ff754c" stroke-linecap="round" stroke-linejoin="round" stroke-width="2"/>
        <line x1="40" y1="3" x2="26" y2="10" fill="none" stroke="#ff754c" stroke-linecap="round" stroke-linejoin="round" stroke-width="2"/>
        <line x1="40" y1="3" x2="43" y2="12" fill="none" stroke="#ff754c" stroke-linecap="round" stroke-linejoin="round" stroke-width="2"/>
        <polyline points="27 11 25 11 25 8" fill="none" stroke="#ff754c" stroke-linecap="round" stroke-linejoin="round" stroke-width="2"/>
      </g>
      <g>
        <line x1="-9" y1="-4" y2="3" fill="none" stroke="#ff754c" stroke-linecap="round" stroke-linejoin="round" stroke-width="2"/>
        <line x1="1" y1="3" x2="1" y2="-12" fill="none" stroke="#ff754c" stroke-linecap="round" stroke-linejoin="round" stroke-width="2"/>
        <line x1="1" y1="3" x2="-13" y2="10" fill="none" stroke="#ff754c" stroke-linecap="round" stroke-linejoin="round" stroke-width="2"/>
        <line x1="1" y1="3" x2="4" y2="12" fill="none" stroke="#ff754c" stroke-linecap="round" stroke-linejoin="round" stroke-width="2"/>
        <line x1="13" y1="-3" x2="1" y2="3" fill="none" stroke="#ff754c" stroke-linecap="round" stroke-linejoin="round" stroke-width="2"/>
        <polyline points="5 10 5 13 2 12" fill="none" stroke="#ff754c" stroke-linecap="round" stroke-linejoin="round" stroke-width="2"/>
      </g>
    </pattern>
  </defs>
  <title>R-1.5</title>
  <rect x="73" y="509" width="193" height="233" fill="url(#d2cd9e44-884a-4630-95f5-751728194a63)"/>
  <rect x="376" y="509" width="218" height="233" fill="url(#5dcc52fc-d828-4023-add4-c9434ead0e79)"/>
  <rect x="703" y="509" width="217" height="233" fill="url(#1851cf96-8868-43b3-a043-d0de25564ba8)"/>
  <rect x="990" y="509" width="231" height="233" fill="url(#ac3b88a7-13f5-4470-b12c-ddaf8c4ac028)"/>
  <rect x="1331" y="509" width="216" height="233" fill="url(#8588430c-a4dd-4193-b6d0-371b36e94473)"/>
  <path d="M0,0H0" fill="none" stroke="#000" stroke-linecap="round" stroke-linejoin="round" stroke-width="2.89"/>
  <path d="M0,0H0" fill="none" stroke="#000" stroke-linecap="round" stroke-linejoin="round" stroke-width="2.89"/>
  <path d="M0,0H0" fill="none" stroke="#000" stroke-linecap="round" stroke-linejoin="round" stroke-width="2.89"/>
  <path d="M0,0H0" fill="none" stroke="#000" stroke-linecap="round" stroke-linejoin="round" stroke-width="2.89"/>
  <path d="M0,0H0" fill="none" stroke="#000" stroke-linecap="round" stroke-linejoin="round" stroke-width="2.89"/>
  <path d="M0,0H0" fill="none" stroke="#000" stroke-linecap="round" stroke-linejoin="round" stroke-width="2.89"/>
  <path d="M0,0H0" fill="none" stroke="#000" stroke-linecap="round" stroke-linejoin="round" stroke-width="2.89"/>
  <path d="M0,0H0" fill="none" stroke="#000" stroke-linecap="round" stroke-linejoin="round" stroke-width="2.89"/>
  <path d="M0,0H0" fill="none" stroke="#000" stroke-linecap="round" stroke-linejoin="round" stroke-width="2.89"/>
  <path d="M0,0H0" fill="none" stroke="#000" stroke-linecap="round" stroke-linejoin="round" stroke-width="2.89"/>
  <path d="M0,0H0" fill="none" stroke="#000" stroke-linecap="round" stroke-linejoin="round" stroke-width="2.89"/>
  <path d="M0,0H0" fill="none" stroke="#000" stroke-linecap="round" stroke-linejoin="round" stroke-width="2.89"/>
  <path d="M0,0H0" fill="none" stroke="#000" stroke-linecap="round" stroke-linejoin="round" stroke-width="2.89"/>
  <path d="M0,0H0" fill="none" stroke="#000" stroke-linecap="round" stroke-linejoin="round" stroke-width="2.89"/>
  <path d="M0,0H0" fill="none" stroke="#000" stroke-linecap="round" stroke-linejoin="round" stroke-width="2.89"/>
  <path d="M0,0H0" fill="none" stroke="#000" stroke-linecap="round" stroke-linejoin="round" stroke-width="2.89"/>
  <path d="M0,0H0" fill="none" stroke="#000" stroke-linecap="round" stroke-linejoin="round" stroke-width="3.37"/>
  <path d="M0,0H0" fill="none" stroke="#000" stroke-linecap="round" stroke-linejoin="round" stroke-width="3.37"/>
  <path d="M0,0H0" fill="none" stroke="#000" stroke-linecap="round" stroke-linejoin="round" stroke-width="3.37"/>
  <path d="M0,0H0" fill="none" stroke="#000" stroke-linecap="round" stroke-linejoin="round" stroke-width="3.37"/>
  <path d="M0,0H0" fill="none" stroke="#000" stroke-linecap="round" stroke-linejoin="round" stroke-width="3.37"/>
  <path d="M0,0H0" fill="none" stroke="#000" stroke-linecap="round" stroke-linejoin="round" stroke-width="3.37"/>
  <path d="M0,0H0" fill="none" stroke="#000" stroke-linecap="round" stroke-linejoin="round" stroke-width="3.37"/>
  <g>
    <path d="M0,0H0" fill="none" stroke="#000" stroke-linecap="round" stroke-linejoin="round" stroke-width="3.37"/>
    <path d="M0,0H0" fill="none" stroke="#000" stroke-linecap="round" stroke-linejoin="round" stroke-width="3.37"/>
    <path d="M0,0H0" fill="none" stroke="#000" stroke-linecap="round" stroke-linejoin="round" stroke-width="3.37"/>
  </g>
  <g>
    <path d="M0,0H0" fill="none" stroke="#000" stroke-linecap="round" stroke-linejoin="round" stroke-width="3.37"/>
    <path d="M0,0H0" fill="none" stroke="#000" stroke-linecap="round" stroke-linejoin="round" stroke-width="3.37"/>
    <polyline points="696 225 709 233 712 219" fill="none" stroke="#000" stroke-linecap="round" stroke-linejoin="round" stroke-width="3.37"/>
  </g>
  <g>
    <path d="M0,0H0" fill="none" stroke="#000" stroke-linecap="round" stroke-linejoin="round" stroke-width="3.37"/>
    <path d="M0,0H0" fill="none" stroke="#000" stroke-linecap="round" stroke-linejoin="round" stroke-width="3.37"/>
    <polyline points="783 292 797 299 800 286" fill="none" stroke="#000" stroke-linecap="round" stroke-linejoin="round" stroke-width="3.37"/>
  </g>
  <g>
    <path d="M0,0H0" fill="none" stroke="#000" stroke-linecap="round" stroke-linejoin="round" stroke-width="3.37"/>
    <path d="M0,0H0" fill="none" stroke="#000" stroke-linecap="round" stroke-linejoin="round" stroke-width="3.37"/>
    <polyline points="871 358 885 365 887 352" fill="none" stroke="#000" stroke-linecap="round" stroke-linejoin="round" stroke-width="3.37"/>
  </g>
  <line x1="1159" y1="333" x2="1051" y2="333" fill="none" stroke="#000" stroke-linecap="round" stroke-linejoin="round" stroke-width="3.37"/>
  <polyline points="1153 342 1162 333 1153 323" fill="none" stroke="#000" stroke-linecap="round" stroke-linejoin="round" stroke-width="3.37"/>
  <line x1="1415" y1="315" x2="1443" y2="336" fill="none" stroke="#000" stroke-linecap="round" stroke-linejoin="round" stroke-width="3.37"/>
  <line x1="1444" y1="336" x2="1444" y2="292" fill="none" stroke="#000" stroke-linecap="round" stroke-linejoin="round" stroke-width="3.37"/>
  <line x1="1444" y1="336" x2="1403" y2="356" fill="none" stroke="#000" stroke-linecap="round" stroke-linejoin="round" stroke-width="3.37"/>
  <line x1="1444" y1="336" x2="1454" y2="363" fill="none" stroke="#000" stroke-linecap="round" stroke-linejoin="round" stroke-width="3.37"/>
  <line x1="1481" y1="319" x2="1445" y2="335" fill="none" stroke="#000" stroke-linecap="round" stroke-linejoin="round" stroke-width="3.37"/>
  <polyline points="1476 315 1483 317 1481 324" fill="none" stroke="#000" stroke-linecap="round" stroke-linejoin="round" stroke-width="3.37"/>
  <polyline points="1439 295 1445 289 1449 295" fill="none" stroke="#000" stroke-linecap="round" stroke-linejoin="round" stroke-width="3.37"/>
  <polyline points="1416 322 1413 314 1420 312" fill="none" stroke="#000" stroke-linecap="round" stroke-linejoin="round" stroke-width="3.37"/>
  <polyline points="1408 359 1401 358 1402 351" fill="none" stroke="#000" stroke-linecap="round" stroke-linejoin="round" stroke-width="3.37"/>
  <polyline points="1457 358 1456 365 1449 363" fill="none" stroke="#000" stroke-linecap="round" stroke-linejoin="round" stroke-width="3.37"/>
  <polygon points="1715 331 1693 301 1722 320 1721 293 1732 318 1757 305 1740 331 1768 354 1736 342 1723 371 1719 343 1685 352 1715 331" fill="none" stroke="#000" stroke-linecap="round" stroke-linejoin="round" stroke-width="3.37"/>
  <path d="M0,0H0" fill="none" stroke="#000" stroke-linecap="round" stroke-linejoin="round" stroke-width="3.37"/>
  <polyline points="1803 361 1804 369 1797 371" fill="none" stroke="#000" stroke-linecap="round" stroke-linejoin="round" stroke-width="3.37"/>
  <g>
    <path d="M0,0Z"/>
    <path d="M0,0ZM0,0Z"/>
    <path d="M0,0ZM0,0Z"/>
    <path d="M0,0Z"/>
    <path d="M0,0Z"/>
    <path d="M0,0Z"/>
    <path d="M0,0Z"/>
    <path d="M0,0ZM0,0Z"/>
    <path d="M0,0Z"/>
    <path d="M0,0Z"/>
    <path d="M0,0ZM0,0Z"/>
    <path d="M0,0Z"/>
    <path d="M0,0Z"/>
    <path d="M0,0Z"/>
    <path d="M0,0Z"/>
    <path d="M0,0Z"/>
    <path d="M0,0Z"/>
  </g>
</svg>
