<?xml version="1.0" encoding="utf-8"?>
<!-- Generator: Adobe Illustrator 22.1.0, SVG Export Plug-In . SVG Version: 6.00 Build 0)  -->
<svg version="1.1" xmlns="http://www.w3.org/2000/svg" xmlns:xlink="http://www.w3.org/1999/xlink" x="0px" y="0px"
	 viewBox="0 0 595.3 841.9" enable-background="new 0 0 595.3 841.9" xml:space="preserve">
<g id="Origin">
</g>
<g id="Calque_1">
	<g>
		<polyline fill="none" stroke="#FF754C" stroke-width="8" stroke-miterlimit="10" points="-953.8,801.5 -956.5,791.2 -962.5,782.8 
			-969.5,775 -977,767.4 -977.9,756.1 -983.6,747.5 -991.6,740.1 -992.7,729.1 -996.8,719.7 -1002.2,710.9 -1006,701.3 -1015,694.1 
			-1018.8,684.5 -1019.7,673.7 -1026.2,665.2 -1031.5,656.2 -1034.5,646.3 -1034,635.1 -1035.9,624.9 -1041.5,615.9 -1042.1,605.3 
			-1045.1,595.6 -1054.9,587.8 -1052.2,576.3 -1055,566.4 -1060.5,557.2 -1063.3,547.3 -1067.6,537.7 -1065.8,526.8 -1071.6,517.4 
			-1070.1,506.7 -1071.7,496.5 -1077.7,487 -1075.3,476.3 -1080.7,466.6 -1078.8,455.9 -1080.6,445.8 -1083.2,435.6 -1079.1,425 
			-1084.2,414.9 -1083.7,404.6 -1084.3,394.3 -1084,383.9 -1077.4,373.8 -1077.1,363.6 -1080.3,353.1 -1079.1,342.9 -1076.8,332.8 
			-1077.5,322.3 -1074.5,312.4 -1069.9,302.8 -1074.9,291.3 -1072.7,281.2 -1065,272.5 -1068.2,260.9 -1064.6,251.2 -1061.4,241.3 
			-1053.1,233.3 -1053.2,222.2 -1044,214.9 -1041.4,204.9 -1041.1,193.6 -1030.8,187.4 -1025.2,178.9 -1022.8,168.4 -1017.3,159.7 
			-1011.2,151.4 -1004.9,143.2 -996.7,136.8 -993.9,125.3 -986.3,118.1 -978,111.8 -966.1,110.1 -959.3,102.3 -950.9,96.4 
			-943.6,88.5 -933.1,86.3 -922.7,84.5 -916,73.8 -904.3,76.2 -894.4,73.9 -885.2,68.1 -874.8,68 -864.4,69.3 -854.5,65.2 
			-844.2,61.2 -833.9,64.7 -823.8,67 -812.9,63.6 -803.7,71.2 -794,74.4 -784.4,77.7 -774,78.5 -762.5,76.9 -755.6,87.5 
			-745.3,89.4 -734.8,91.2 -727.5,99.5 -718.7,104.7 -710.2,110.3 -699.7,112.8 -688.8,115 -682.9,124.7 -673.7,129.5 -666.4,137 
			-655.8,140.2 -648.1,147.1 -643.9,158 -635,163.5 -625.3,168.1 -620.2,177.8 -610.5,182.6 -604.9,191.6 -597.4,198.7 
			-592.2,207.9 -582.6,213.3 -577.4,222.4 -569.1,229.1 -564.3,238.4 -556.9,245.9 -554.5,256.7 -550.9,266.6 -544.2,274.6 
			-535,281.2 -530.7,290.7 -526.5,300.2 -524.5,310.7 -516.3,318.3 -513.6,328.4 -513.8,339.6 -509.6,349 -502.2,357.3 
			-501.1,367.8 -495.8,377 -490.8,386.4 -494.3,397.9 -492,407.9 -487.4,417.5 -485.4,427.6 -485,438 -485.7,448.5 -485,458.7 
			-480,468.6 -476.6,478.8 -477.8,489.2 -475.5,499.5 -481.1,509.9 -482,520.1 -480.4,530.5 -477.5,541 -477.5,551.5 -484.7,561.1 
			-480.6,572 -488,581.4 -490.4,591.4 -487,602.5 -492.2,612 -490.8,622.9 -495.1,632.5 -497.9,642.5 -503.6,651.5 -503.9,662.3 
			-511.9,670.3 -509.1,682.5 -516.5,690.7 -523.1,698.9 -523.5,710.2 -531.9,717.5 -533.4,728.5 -537.5,738.2 -544.2,746.4 
			-551.5,753.9 -561.7,759 -566.3,768.4 -574.1,775.2 -577.9,786.3 -587.5,791.1 -598.7,792.7 -605,802.7 -616.1,802.6 
			-625.2,808.7 -635.6,804.6 -646.5,808.7 -656.3,804.1 -663.3,795.8 -672.4,790.8 -678.5,782.4 -687.3,775.9 -688,764.4 
			-695.5,756.6 -697.4,746.2 -700.3,736.4 -704.2,726.8 -704.8,716.4 -709.8,707 -711.8,696.8 -714.7,686.9 -717.1,676.7 
			-715.4,666.1 -720.2,656.2 -716.7,645.6 -721,635.5 -717.6,625 -717,614.7 -723.7,604.5 -720,594.1 -720.7,583.8 -722.3,573.5 
			-717.2,563.2 -723,552.8 -719.8,542.6 -715.9,532.4 -718.7,522 -715.3,511.8 -715.6,501.5 -715.1,491.2 -713.4,481 -713,470.7 
			-714.3,460.2 -713,450 -715.5,439.3 -711,429.4 -710.7,419.1 -712.8,408.4 -710,398.4 -706.3,388.5 -702.5,378.7 -705.7,367.7 
			-697.8,358.8 -695.4,348.9 -694.1,338.7 -695.2,327.8 -694.2,317.4 -686,309.1 -685.2,298.7 -678.8,290 -675.3,280.4 
			-673.9,270.1 -669.2,260.9 -667.9,250.3 -664.3,240.6 -656.6,233 -651.8,223.9 -649.7,213.3 -640.3,207 -637.5,196.6 
			-633.2,187.1 -623.4,181.6 -615.9,174.5 -613.8,162.8 -604.9,157 -599,148.4 -589.3,143.6 -585.2,132.8 -576.8,126.7 
			-565.6,124.3 -556.2,120.1 -549.3,112 -539.2,109.2 -532.1,100.6 -522.1,97.7 -514,90.3 -502.1,92.9 -493.9,84.8 -483.3,84.6 
			-473.1,83.8 -463.1,81.8 -453.2,77.7 -442.7,82.1 -432.6,78.7 -422.2,74.5 -412.1,78.2 -402.3,82.6 -392.4,85.1 -382.2,85.8 
			-371.8,86.3 -361.6,88.1 -352.1,92.1 -341.5,93.4 -333.1,99.9 -324.3,105.4 -313.9,107.9 -304.9,113 -295.9,118.1 -288.2,125.2 
			-282.9,135.2 -272.3,138.5 -266.1,147 -257.2,152.5 -251.1,160.9 -245.7,169.9 -237.4,176.3 -229.2,182.9 -224.9,192.5 
			-217.3,199.8 -210.8,207.9 -205,216.5 -199.9,225.5 -196,235.2 -194.8,246.1 -186,253.3 -186.3,264.7 -178.1,272.4 -180,284.2 
			-170.2,291.5 -169.7,302.2 -167.5,312.3 -164.4,322 -163.3,332.4 -159.5,341.9 -156.6,351.8 -152,361.3 -150.5,371.5 
			-150.3,381.9 -151.4,392.5 -147.7,402.3 -149.3,412.8 -146.3,422.8 -147.7,433.2 -146,443.3 -144.5,453.4 -145.4,463.7 
			-138.3,473.8 -143.8,484.1 -140.3,494.4 -143,504.6 -141.9,514.9 -144,525.1 -145.4,535.3 -141.1,545.9 -148,555.6 -147.4,566 
			-149.2,576.1 -145.1,586.8 -147,597 -153.6,606.5 -152.7,616.9 -149.7,627.8 -157.4,636.9 -154.3,647.9 -158,657.7 -159.4,667.9 
			-165.4,677.1 -162.1,688.2 -169.9,696.9 -166.2,708.3 -174.5,716.6 -174,727.3 -178.7,736.5 -178.1,747.6 -185.6,755.6 
			-188.9,765.4 -198.3,771.4 -203.5,779.7 -209.9,787.8 -219.8,790 -231,791.5 -236.4,780.7 -244.2,774.7 -253.1,768.7 
			-259.6,760.5 -260.6,749.5 -265.4,740.5 -272.5,732.4 -274.2,722.1 -274.4,711.5 -276.5,701.5 -279,691.8 -287.6,683.6 
			-285.9,672.6 -293.6,664 -294.4,653.7 -295.9,643.6 -293.3,632.8 -294.8,622.8 -296.9,612.8 -302.9,603.5 -304.9,593.4 
			-305.7,583.3 -307,573.2 -304.4,562.7 -310.6,553 -307.8,542.5 -311.5,532.6 -309.2,522.2 -313.3,512.2 -311.8,501.8 
			-314.8,491.6 -313.7,481.2 -314,470.9 -312.4,460.6 -310.5,450.4 -311.6,440.1 -311.5,429.8 -308.1,419.7 -308.7,409.4 
			-307.7,399.1 -309.5,388.6 -301.4,379.2 -300.4,369 -302.4,358.4 -299.1,348.5 -298.5,338.2 -298.7,327.7 -293,318.4 -290,308.5 
			-289.9,298.1 -291.8,287 -287.5,277.5 -285.7,267.3 -283.4,257.2 -275.7,248.8 -275.2,238.2 -268.9,229.5 -269.5,218.3 
			-265.8,208.6 -259,200.3 -255.9,190.4 -253.1,180.3 -246,172.4 -237.6,165.3 -237.6,153.3 -232.4,144.3 -222.6,138.6 
			-214.4,132.1 -213,119.7 -203.4,114.5 -197.1,106.1 -188.7,100 -180.5,93.7 -170.6,90 -162.7,82.8 -152.7,79.9 -142.8,76.7 
			-132.4,76 -122.7,70.9 -112.3,69.3 -101.7,69.4 -91.7,73.6 -81.3,74.1 -72.5,81.6 -62.1,82.2 -50.9,81.6 -42.1,87.3 -31.7,89.8 
			-24.6,98.4 -16.3,104.5 -6,107.4 0.9,115.5 7.8,123.5 16.8,128.4 23.9,135.9 35.7,137.8 42.9,145.3 46.7,156.3 58.1,159.2 
			64,167.9 72.7,173.7 79.2,181.8 87.5,188.1 89.3,200.4 99.3,205.2 106.8,212.3 110.5,222.7 116.3,231.1 125.2,237.2 133,244.1 
			138,253.2 142.3,262.9 149.6,270.2 158.4,276.5 162.8,286 168.7,294.4 174.3,303.1 177.1,313.6 184.8,320.7 194.3,326.8 
			194,339.3 200.1,347.6 209.1,354 216.6,361.6 216.5,373.5 223.9,381.3 225.5,391.9 231.1,400.8 232.2,411.2 236.7,420.7 
			239.5,430.6 240,441 245.2,450.6 246.2,461 245.3,471.4 243.3,481.9 249.6,492 242.8,502.4 243.4,512.6 242.3,522.8 242.9,533.1 
			245.8,543.7 241,553.5 244.1,564.4 240.2,574.2 235.6,583.8 234,594 230.9,603.8 229.5,614.1 231.2,625.4 227.5,635.1 
			223.4,644.7 214.3,652.3 211.5,662.2 210.3,672.9 203,680.9 198.3,690 193.5,699.1 187.2,707.3 181.6,715.8 178.7,726.4 
			171.4,733.8 161.8,738.9 158,749.9 147.2,752.8 140.5,761.8 128.7,759.6 119.7,767.9 110.1,761.2 101.6,757.1 91.3,754.5 
			86.8,744.8 78.6,738.3 74.4,728.8 71.2,719.1 63.4,711.1 61.8,700.7 62,690 53.5,681.4 54.5,670.6 52.7,660.5 53,650 47.4,640.4 
			50.8,629.5 45.1,619.8 47.9,609.2 48,598.8 48.3,588.5 40.6,578.6 43.3,568.1 42.7,557.8 46.9,547.4 44.2,537.2 45.9,526.8 
			43.5,516.5 46.5,506.3 44.3,495.9 46.2,485.7 47.4,475.4 43.9,464.9 46.3,454.7 46.6,444.4 47.2,434.2 48.6,423.9 50.1,413.7 
			50,403.4 45.4,392.6 49.3,382.6 47.6,372 49.7,361.8 56.5,352.4 58.6,342.4 58,331.8 58.2,321.4 61.5,311.5 60.3,300.6 66,291.4 
			69.4,281.6 74.7,272.4 70.9,260.5 75.5,251.1 78.4,241.2 85.2,232.6 86.5,222.1 89.2,211.9 95.5,203.4 98.2,193.2 108.6,187 
			108.2,174.9 119,169.4 124.8,161 126.4,149.6 135.2,143.3 139.2,133.2 147.8,127 153.1,117.7 162.9,113 169.2,104.3 177.5,98 
			188.9,96.7 196.3,88.7 207,87.5 216.2,82.9 225.6,78.4 235.9,77 246.3,77.4 256.3,73.1 266.8,74.1 276.7,78 287.3,76.7 
			296.1,83.9 307.6,81.4 315.7,88.9 327.4,88.1 336.2,94 344.4,100.4 352.6,106.7 360.8,113.1 369.8,118.3 374,129 385,132.4 
			390.1,141.8 399.9,146.9 406,155.3 413.3,162.8 415.4,174 419.5,183.6 429.8,189.2 436.2,197.4 441.6,206.3 443.5,217 
			444.9,227.8 454.8,234.5 459.2,243.9 458.8,255.2 462.9,264.6 469.7,273.2 468.9,284.3 471.1,294.4 473.5,304.3 483.7,312.2 
			482.5,323.2 488.3,332.4 489.7,342.7 488.2,353.5 491.4,363.4 493.7,373.5 491.5,384.2 494.9,394.1 496.8,404.2 496.8,414.6 
			500.9,424.5 497.7,435.1 501.7,445.1 505.5,455.2 506.9,465.5 504,476 501.3,486.3 501,496.6 502.3,506.9 		"/>
	</g>
	<g>
		<g>
			<g>
				<polyline fill="none" stroke="#FF754C" stroke-width="5.1427" stroke-linejoin="round" stroke-miterlimit="10" points="
					212.9,322.4 214.3,322.7 215.6,322.7 217,322.5 218.4,322.7 219.8,322.5 221.2,322.6 222.6,322.9 224,322.9 225.3,322.9 
					226.7,322.9 228.1,323.2 229.5,323.5 230.9,323.3 232.2,323.8 233.7,323.6 235,323.9 236.4,324.2 237.8,324.4 239.2,324.4 
					240.5,324.7 241.9,325.1 243.3,325 244.6,325.4 246.1,325.4 247.4,325.8 248.8,325.8 250.2,326 251.5,326.5 252.9,326.4 
					254.3,326.9 252.9,326.8 251.5,327 250.1,327.4 248.7,327.8 247.3,327.8 246,328.3 244.5,328.3 243.1,328.5 241.7,328.7 
					240.4,329.2 238.9,329.1 237.6,329.7 236.2,329.8 234.7,330 233.4,330.3 232,330.5 230.5,330.5 229.1,330.9 227.7,331 
					226.3,331.2 225,331.8 223.5,331.7 222.2,332.2 220.8,332.4 219.3,332.4 				"/>
			</g>
			<g>
				<polyline fill="none" stroke="#FF754C" stroke-width="5.1427" stroke-linejoin="round" stroke-miterlimit="10" points="
					239,332.4 237.9,331.7 236.7,331 235.5,330.3 234.3,329.6 233.2,328.9 232.1,328.1 230.9,327.5 229.7,326.8 228.5,326.2 
					227.3,325.4 226.1,324.8 224.9,324.1 223.8,323.4 222.6,322.7 				"/>
			</g>
		</g>
		<g>
			<g>
				<polyline fill="none" stroke="#FF754C" stroke-width="5.1427" stroke-linejoin="round" stroke-miterlimit="10" points="
					209.5,277.2 208.1,277.1 206.7,277.3 205.3,277.4 203.9,277.4 202.5,277.7 201,277.8 199.6,277.9 198.2,278.2 196.8,278.5 
					195.4,278.7 194,278.7 192.6,279 191.2,279.4 189.8,279.7 188.4,279.8 187,280.3 185.7,280.7 184.4,281.3 183.2,282 
					182.1,282.9 181.5,284.1 182.4,285.1 183.5,285.9 184.8,286.4 186.2,286.5 187.5,287 188.8,287.2 190.2,287.3 191.6,287.7 
					192.9,287.8 194.3,287.8 195.7,287.9 197.1,288 198.4,288.1 				"/>
			</g>
			<g>
				<polyline fill="none" stroke="#FF754C" stroke-width="5.1427" stroke-linejoin="round" stroke-miterlimit="10" points="
					194.1,278.8 195.4,279.3 196.8,279.8 198.1,280.4 199.4,280.9 200.8,281.4 202.1,282 203.4,282.6 204.8,283 206.1,283.6 				"/>
			</g>
			<g>
				<polyline fill="none" stroke="#FF754C" stroke-width="5.1427" stroke-linejoin="round" stroke-miterlimit="10" points="
					207.3,275.8 208.6,276.5 210,277 211.3,277.5 212.7,278 214,278.6 215.4,279.1 216.7,279.7 218,280.2 219.4,280.8 220.7,281.3 
					222.1,281.9 				"/>
			</g>
		</g>
		<g>
			<g>
				<polyline fill="none" stroke="#FF754C" stroke-width="5.1427" stroke-linejoin="round" stroke-miterlimit="10" points="
					229.9,305.4 231.2,306.1 232.5,306.7 233.8,307.4 235.1,308.1 236.4,308.7 237.6,309.4 238.9,310 240.2,310.7 241.5,311.5 
					242.8,312.1 244,312.8 245.4,313.4 246.7,314.1 247.9,314.9 				"/>
			</g>
			<g>
				<polyline fill="none" stroke="#FF754C" stroke-width="5.1427" stroke-linejoin="round" stroke-miterlimit="10" points="
					239.2,310.4 237.8,310.5 236.4,310.7 235,310.9 233.5,310.9 232.1,310.9 230.7,311.3 229.3,311.3 227.9,311.6 226.5,311.8 
					225,311.7 223.6,312 222.2,312 220.8,312.1 219.3,312.3 217.9,312.5 216.5,312.7 215.1,312.7 213.7,312.8 212.2,312.9 
					210.8,313.2 209.4,313.2 208,313.6 206.5,313.6 205.1,313.7 				"/>
			</g>
		</g>
		<g>
			<g>
				<polyline fill="none" stroke="#FF754C" stroke-width="5.1427" stroke-linejoin="round" stroke-miterlimit="10" points="
					259.1,352.6 260.1,353.5 261.1,354.5 262.1,355.5 263.1,356.6 264.1,357.5 265.1,358.6 266.1,359.5 267.1,360.6 268.1,361.6 
					269.2,362.5 270.1,363.6 271.2,364.6 				"/>
			</g>
			<g>
				<polyline fill="none" stroke="#FF754C" stroke-width="5.1427" stroke-linejoin="round" stroke-miterlimit="10" points="
					265.2,358.9 263.8,358.8 262.5,358.5 261.1,358.5 259.7,358.2 258.4,358.2 257,358 255.6,357.7 254.3,357.5 252.9,357.5 
					251.5,357.4 250.2,357.1 248.7,357.2 247.4,357 246,356.6 244.7,356.5 243.3,356.5 241.9,356.2 240.5,356.2 239.2,356 
					237.8,355.8 236.4,355.7 235,355.7 233.7,355.5 232.3,355.2 230.9,355.2 229.5,355 				"/>
			</g>
		</g>
		<g>
			<g>
				<polyline fill="none" stroke="#FF754C" stroke-width="5.1427" stroke-linejoin="round" stroke-miterlimit="10" points="
					256.7,339.3 255.3,339.3 253.9,339.4 252.5,339.3 251.1,339.3 249.7,339.3 248.3,339.1 246.9,339.2 245.5,339.2 244.1,338.9 
					242.7,338.9 241.3,339 239.9,338.9 238.5,338.8 237.1,339 235.7,338.8 234.3,338.8 232.9,338.8 231.5,338.7 230.1,338.6 
					228.7,338.6 227.3,338.6 225.9,338.4 224.5,338.5 223.1,338.3 221.7,338.4 				"/>
			</g>
			<g>
				<polyline fill="none" stroke="#FF754C" stroke-width="5.1427" stroke-linejoin="round" stroke-miterlimit="10" points="
					246.5,337.8 247.8,338.2 249,338.8 250.3,339.1 251.5,339.8 252.7,340.3 254,340.7 255.3,341.2 256.5,341.8 257.8,342.4 
					259,343 260.1,343.7 261.4,344.2 262.4,345.2 263.5,345.9 263,347 261.7,347.3 260.3,347.4 258.9,347.4 257.5,347.5 
					256.1,347.3 254.8,347.3 253.4,347.2 252,346.9 250.6,346.6 249.3,346.4 248,345.9 246.6,345.6 245.3,345.2 244,344.7 
					242.7,344.1 241.4,343.5 240.2,343 239,342.2 237.9,341.3 237.3,340.1 238.3,339.2 				"/>
			</g>
			<g>
				<polyline fill="none" stroke="#FF754C" stroke-width="5.1427" stroke-linejoin="round" stroke-miterlimit="10" points="225,347 
					226.4,346.7 227.7,346.3 229,346.1 230.4,345.8 231.7,345.5 233,345.2 234.4,344.8 235.7,344.6 237,344.3 238.4,344.1 
					239.7,343.7 241.1,343.4 				"/>
			</g>
		</g>
		<g>
			<g>
				<g>
					<polyline fill="none" stroke="#FF754C" stroke-width="5.1427" stroke-linejoin="round" stroke-miterlimit="10" points="
						189,260.8 187.7,261.3 186.4,261.8 185,262.3 183.7,262.9 182.5,263.5 181.2,264.1 179.9,264.6 178.6,265.2 177.4,266 
						176,266.4 174.7,266.9 173.4,267.6 172.1,268.1 170.8,268.7 169.6,269.4 168.3,270 167,270.5 165.7,271.1 164.4,271.6 
						163,272.1 					"/>
				</g>
				<g>
					<polyline fill="none" stroke="#FF754C" stroke-width="5.1427" stroke-linejoin="round" stroke-miterlimit="10" points="
						180,262.8 181.3,262.7 182.7,262.8 184.1,262.8 185.5,262.8 186.9,262.7 188.3,262.7 189.7,262.7 191.1,262.8 192.5,262.9 
						193.9,262.9 195.3,263.2 196.7,263.1 198.1,263.3 199.4,263.7 200.8,263.9 201.5,265.1 200.5,266 199.3,266.9 198,267.4 
						196.8,268 195.4,268.5 194,268.8 192.7,269.2 191.3,269.2 189.9,269.4 188.5,269.6 187.1,269.8 185.7,269.7 184.3,269.7 
						182.9,269.9 181.4,269.8 180.1,269.5 178.7,269.2 177.3,268.8 176.1,268.1 175.6,267 					"/>
				</g>
			</g>
			<g>
				<polyline fill="none" stroke="#FF754C" stroke-width="5.1427" stroke-linejoin="round" stroke-miterlimit="10" points="
					174.5,278.5 175.4,277.4 176.4,276.3 177.3,275.2 178.3,274.2 179.2,273 180.2,271.9 181.2,270.8 182.1,269.7 				"/>
			</g>
		</g>
		<g>
			<g>
				<polyline fill="none" stroke="#FF754C" stroke-width="5.1427" stroke-linejoin="round" stroke-miterlimit="10" points="
					224.3,297.7 225.8,297.9 227.3,297.9 228.8,297.5 230.2,296.9 231.5,296.1 232.7,295.1 231.3,294.4 229.9,294.1 228.6,293.3 
					227.2,293 225.7,292.6 224.3,292.3 222.9,292 221.4,291.9 219.9,291.7 218.5,291.7 217,291.7 215.5,291.6 214,291.5 
					212.6,291.7 211.2,292.1 209.7,292.2 208.2,292.4 206.9,293 205.7,293.8 206.3,295 207.6,295.5 208.8,295.9 210.1,296.3 
					211.4,296.9 212.7,297.3 214.1,297.6 215.4,297.9 216.7,298.3 217.9,298.9 219.1,299.6 219.5,300.8 218.3,301.5 217,301.9 
					215.6,302 214.3,302.5 212.9,302.6 211.5,302.5 210.1,302.7 208.7,302.8 207.4,302.5 206,302.4 204.6,302.1 203.3,301.9 
					201.9,301.8 200.6,301.3 199.3,300.7 198,300.2 196.7,299.7 195.6,299 196.4,298.2 197.5,297.6 198.7,297 199.9,296.6 				"/>
			</g>
		</g>
	</g>
</g>
</svg>
