<svg id="e0af2db1-a0a3-42b3-af20-7ccca9b38513" data-name="Calque 1" xmlns="http://www.w3.org/2000/svg" width="371" height="268" viewBox="0 0 371 268">
  <title>R_Join</title>
  <text transform="translate(26 125)" font-size="90" font-family="Belgika-40th, Belgika">J<tspan x="40" y="-30">o</tspan><tspan x="124" y="-40">i</tspan><tspan x="147" y="-20" font-size="60">n</tspan><tspan x="194" y="0"> </tspan><tspan font-size="110"><tspan x="0" y="74" xml:space="preserve" letter-spacing="0.11em">  </tspan><tspan x="114" y="4" font-size="30" font-family="Belgika-8th, Belgika">t</tspan><tspan x="134" y="14" font-size="30" font-family="Belgika-8th, Belgika">h</tspan><tspan x="155" y="24" font-size="30" font-family="Belgika-8th, Belgika">e</tspan><tspan x="174" y="74" font-size="90" font-family="belgika" font-weight="200"> </tspan></tspan><tspan font-family="Belgika-8th, Belgika"><tspan x="0" y="89" xml:space="preserve">  c</tspan><tspan x="146" y="69" font-size="40" font-family="Belgika-5th, Belgika">l</tspan><tspan x="173" y="119">u</tspan><tspan x="246" y="79" letter-spacing="-0.19em">b</tspan></tspan></text>
  <text transform="translate(317 241) rotate(11)" font-size="90" font-family="Belgika-16th, Belgika" letter-spacing="0em">!</text>
</svg>
