<svg id=" " style="visibility: hidden" data-name="Calque 1" xmlns="http://www.w3.org/2000/svg" width="0" height="0" viewBox="0 0 2 2">
	<title></title>
	<defs>
        <filter id="Filter-Text_01" >
			<!-- First Hard distortion -->
        	<feTurbulence baseFrequency=".06" type="fractalNoise" numOctaves="0" seed="5" result="t1" />
			<feDisplacementMap in="SourceGraphic" in2="t1" xChannelSelector="R" yChannelSelector="B" scale="4" result="main" /> 
			<!-- Then details -->
			<feTurbulence in="main" type="turbulence" baseFrequency="0.265" numOctaves="5" data-filterId="3" />
			>
			<feDisplacementMap xChannelSelector="R" yChannelSelector="G" in="main" scale="02" />
		</filter>

        <filter id="Filter-Text_02" >
			<!-- Details -->
			<feTurbulence type="turbulence" baseFrequency="0.265" numOctaves="5" result="turbulence_3" data-filterId="3" /> 
			<feDisplacementMap xChannelSelector="R" yChannelSelector="G" in="SourceGraphic" in2="turbulence_3" scale="02" />
		</filter>

        <filter id="Filter-Text_03" >
			<!-- Details -->
			<feTurbulence type="turbulence" baseFrequency="0.165" numOctaves="5" result="turbulence_3" data-filterId="3" /> 
			<feDisplacementMap xChannelSelector="R" yChannelSelector="G" in="SourceGraphic" in2="turbulence_3" scale="01" />
		</filter>

		<filter id="Filter-Illustration_01">
			<!-- Add huge disturtion -->
			<feTurbulence baseFrequency=".5" type="fractalNoise" numOctaves="0" seed="5" />
			<feDisplacementMap in="SourceGraphic" xChannelSelector="R" yChannelSelector="B" scale="3" result="t1" /> 

			<feComponentTransfer result="main">
			<feFuncA type="gamma" amplitude="10" exponent="5"/>
			</feComponentTransfer>

			<feColorMatrix type="matrix" values="
			0 0 0 0 0 
		    0 0 0 0 0
		    0 0 0 0 0
		    0  0 0 0 0"/>

		    <feComposite operator="over" in="main"/>

			<!-- Add detailed turbulence -->
			<feTurbulence baseFrequency="5" type="turbulence" numOctaves="0" seed="5" /><!-- Passe Haut -->
			<feDisplacementMap in="main" scale="2" xChannelSelector="R" yChannelSelector="B" result="Textured_Text" />
			<feColorMatrix in="Textured_Text" type="matrix" values="0 0 0 0 0 
		    0 0 0 0 0
		    0 0 0 0 0
		    0 0 0 1 0"/><!-- Multiply -->
		</filter>

		<filter id="Filter-Illustration_02">
			<!-- Add huge disturtion -->
			<feTurbulence baseFrequency=".2" type="fractalNoise" numOctaves="0" seed="5" />
			<feDisplacementMap in="SourceGraphic" xChannelSelector="R" yChannelSelector="B" scale="3" result="t1" /> 

			<feComponentTransfer result="main">
			<feFuncA type="gamma" amplitude="10" exponent="5"/>
			</feComponentTransfer>

			<feColorMatrix type="matrix" values="
			0 0 0 0 0 
		    0 0 0 0 0
		    0 0 0 0 0
		    0  0 0 0 0"/>

		    <feComposite operator="over" in="main"/>

			<!-- Add detailed turbulence -->
			<feTurbulence baseFrequency="5" type="turbulence" numOctaves="0" seed="5" /><!-- Passe Haut -->
			<feDisplacementMap in="main" scale="2" xChannelSelector="R" yChannelSelector="B" result="Textured_Text" />
			<feColorMatrix in="Textured_Text" type="matrix" values="0 0 0 0 0 
		    0 0 0 0 0
		    0 0 0 0 0
		    0 0 0 1 0"/><!-- Multiply -->
		</filter>

		<filter id="Filter-Illustration_03">
			<!-- Add huge disturtion -->
			<feTurbulence baseFrequency=".1" type="fractalNoise" numOctaves="0" seed="5"></feTurbulence>
			<feDisplacementMap in="SourceGraphic" xChannelSelector="R" yChannelSelector="B" scale="3" result="t1"></feDisplacementMap> 

			<feComponentTransfer result="main">
			</feComponentTransfer>
			<!-- Add detailed turbulence -->
			<feTurbulence baseFrequency="5" type="turbulence" numOctaves="0" seed="5"></feTurbulence><!-- Passe Haut -->
			<feDisplacementMap in="main" scale="2" xChannelSelector="R" yChannelSelector="B" result="Textured_Text"></feDisplacementMap>
		</filter> 
	</defs>
 </svg>