<svg id=" " style="visibility: hidden" data-name="Calque 1" xmlns="http://www.w3.org/2000/svg" width="0" height="0" viewBox="0 0 2 2">
	<title></title>
	<defs>
       <filter id="Filter-Text_02" >
			<!-- Details -->
			<feTurbulence type="turbulence" baseFrequency="0.265" numOctaves="5" result="turbulence_3" data-filterId="3" /> 
			<feDisplacementMap xChannelSelector="R" yChannelSelector="G" in="SourceGraphic" in2="turbulence_3" scale="02" />
		</filter>
	</defs>
 </svg>